<svg xmlns="http://www.w3.org/2000/svg" xmlns:xlink="http://www.w3.org/1999/xlink" width="137" height="120" viewBox="0 0 137 120">
    <defs>
        <path id="a" d="M0 120h145.715V.602H0z"/>
        <path id="c" d="M.173.602h87.495V120H.173z"/>
        <path id="e" d="M.55 9.495c-.002 5.141 3.999 9.311 8.938 9.314 4.936.002 8.938-4.166 8.944-9.305C18.434 4.36 14.433.19 9.497.187 4.56.185.552 4.351.55 9.495z"/>
    </defs>
    <g fill="none" fill-rule="evenodd">
        <g>
            <path fill="#6ACCCC" d="M31.854 34.017H1.271A1.26 1.26 0 0 0 0 35.27v.007c0 .691.57 1.25 1.271 1.25h30.583v-2.509M31.854 28.066H7.946c-.701 0-1.273.56-1.273 1.251v.008c0 .691.572 1.246 1.273 1.246h23.908v-2.505M31.854 22.117H21.612a1.26 1.26 0 0 0-1.272 1.25v.004c0 .69.57 1.252 1.272 1.252h10.242v-2.506"/>
            <path fill="#67CBCB" d="M.668 29.228c0-.74.612-1.343 1.366-1.343H4.3c.751 0 1.363.603 1.363 1.343 0 .744-.612 1.344-1.363 1.344H2.034c-.754 0-1.366-.6-1.366-1.344"/>
            <mask id="b" fill="#fff">
                <use xlink:href="#a"/>
            </mask>
            <path fill="#6ACCCC" d="M101.922 36.525h20.826v-2.508h-20.826zM101.922 30.571h20.826v-2.505h-20.826zM101.922 24.623h20.826v-2.506h-20.826z" mask="url(#b)"/>
            <path fill="#67CBCB" d="M55.5 29.228c0-.74.612-1.343 1.364-1.343h2.268c.751 0 1.363.603 1.363 1.343 0 .744-.612 1.344-1.363 1.344h-2.268c-.752 0-1.364-.6-1.364-1.344" mask="url(#b)"/>
            <path fill="#9B6D01" d="M101.765 78.743h-69.91V8.498l3.002-2.96 66.908.807.157 69.212z" mask="url(#b)"/>
            <path fill="#FFF" d="M32.012 75.557h69.91V5.582h-69.91z" mask="url(#b)"/>
        </g>
        <path fill="#5ABDFE" d="M68.901 24.15c0 1.18-.972 2.134-2.17 2.134-1.2 0-2.171-.954-2.171-2.134 0-1.176.972-2.131 2.17-2.131 1.199 0 2.171.955 2.171 2.131M78.25 24.15c0 1.18-.97 2.134-2.17 2.134-1.198 0-2.172-.953-2.172-2.134 0-1.177.974-2.132 2.171-2.132 1.2 0 2.171.955 2.171 2.132"/>
        <path fill="#2B85C9" d="M87.599 24.15c0 1.18-.972 2.134-2.171 2.134-1.198 0-2.172-.953-2.172-2.134 0-1.177.974-2.132 2.172-2.132 1.2 0 2.17.955 2.17 2.132M96.947 24.15c0 1.18-.97 2.134-2.17 2.134-1.198 0-2.17-.953-2.17-2.134 0-1.177.972-2.132 2.17-2.132 1.2 0 2.17.955 2.17 2.132"/>
        <path fill="#5ABDFE" d="M40.854 34.842c0 1.178-.972 2.133-2.17 2.133-1.2 0-2.171-.955-2.171-2.133 0-1.177.972-2.132 2.17-2.132 1.199 0 2.171.955 2.171 2.132M50.203 34.842c0 1.178-.972 2.133-2.17 2.133-1.2 0-2.17-.955-2.17-2.133 0-1.177.97-2.132 2.17-2.132 1.198 0 2.17.955 2.17 2.132M59.552 34.842c0 1.178-.973 2.133-2.17 2.133-1.2 0-2.171-.955-2.171-2.133 0-1.177.971-2.132 2.17-2.132 1.198 0 2.17.955 2.17 2.132M68.902 34.84c0 1.18-.974 2.134-2.171 2.134-1.198 0-2.172-.953-2.172-2.133 0-1.175.974-2.13 2.172-2.13 1.197 0 2.17.955 2.17 2.13M78.25 34.84c0 1.18-.97 2.134-2.17 2.134-1.198 0-2.172-.953-2.172-2.133 0-1.175.974-2.13 2.171-2.13 1.2 0 2.171.955 2.171 2.13"/>
        <path fill="#2B85C9" d="M87.599 34.84c0 1.18-.972 2.134-2.171 2.134-1.198 0-2.172-.953-2.172-2.133 0-1.175.974-2.13 2.172-2.13 1.2 0 2.17.955 2.17 2.13M96.947 34.84c0 1.18-.97 2.134-2.17 2.134-1.198 0-2.17-.953-2.17-2.133 0-1.175.972-2.13 2.17-2.13 1.2 0 2.17.955 2.17 2.13"/>
        <path fill="#5ABDFE" d="M40.854 45.532c0 1.179-.972 2.134-2.17 2.134-1.2 0-2.171-.955-2.171-2.134 0-1.178.972-2.132 2.17-2.132 1.199 0 2.171.954 2.171 2.132M50.203 45.532c0 1.179-.972 2.134-2.17 2.134-1.2 0-2.17-.955-2.17-2.134 0-1.178.97-2.132 2.17-2.132 1.198 0 2.17.954 2.17 2.132M59.55 45.533c0 1.177-.97 2.133-2.168 2.133-1.2 0-2.171-.956-2.171-2.133 0-1.18.97-2.133 2.171-2.133 1.197 0 2.169.953 2.169 2.133M68.902 45.533c0 1.177-.974 2.133-2.171 2.133-1.198 0-2.172-.956-2.172-2.133 0-1.18.974-2.133 2.172-2.133 1.197 0 2.17.953 2.17 2.133M78.25 45.533c0 1.177-.97 2.133-2.17 2.133-1.198 0-2.172-.956-2.172-2.133 0-1.18.974-2.133 2.171-2.133 1.2 0 2.171.953 2.171 2.133"/>
        <path fill="#2B85C9" d="M87.599 45.533c0 1.177-.972 2.133-2.171 2.133-1.198 0-2.172-.956-2.172-2.133 0-1.18.974-2.133 2.172-2.133 1.2 0 2.17.953 2.17 2.133M96.947 45.533c0 1.177-.97 2.133-2.17 2.133-1.198 0-2.17-.956-2.17-2.133 0-1.18.972-2.133 2.17-2.133 1.2 0 2.17.953 2.17 2.133"/>
        <path fill="#5ABDFE" d="M40.854 56.073c0 1.18-.972 2.133-2.169 2.133-1.2 0-2.171-.953-2.171-2.133 0-1.177.97-2.13 2.171-2.13 1.197 0 2.169.953 2.169 2.13M50.202 56.073c0 1.18-.97 2.133-2.169 2.133-1.2 0-2.17-.953-2.17-2.133 0-1.177.97-2.13 2.17-2.13 1.198 0 2.169.953 2.169 2.13M59.55 56.073c0 1.18-.97 2.133-2.168 2.133-1.2 0-2.171-.953-2.171-2.133 0-1.177.97-2.13 2.171-2.13 1.197 0 2.169.953 2.169 2.13M68.902 56.073c0 1.18-.974 2.133-2.171 2.133-1.198 0-2.172-.953-2.172-2.133 0-1.177.974-2.13 2.172-2.13 1.197 0 2.17.953 2.17 2.13M78.25 56.073c0 1.18-.97 2.133-2.17 2.133-1.198 0-2.172-.953-2.172-2.133 0-1.177.974-2.13 2.171-2.13 1.2 0 2.171.953 2.171 2.13"/>
        <path fill="#2B85C9" d="M87.599 56.073c0 1.18-.972 2.133-2.171 2.133-1.198 0-2.172-.953-2.172-2.133 0-1.177.974-2.13 2.172-2.13 1.2 0 2.17.953 2.17 2.13M96.947 56.073c0 1.18-.97 2.133-2.17 2.133-1.198 0-2.17-.953-2.17-2.133 0-1.177.972-2.13 2.17-2.13 1.2 0 2.17.953 2.17 2.13"/>
        <path fill="#5ABDFE" d="M40.854 66.764c0 1.18-.972 2.133-2.169 2.133-1.2 0-2.171-.953-2.171-2.133 0-1.178.97-2.131 2.171-2.131 1.197 0 2.169.953 2.169 2.13M50.202 66.764c0 1.18-.97 2.133-2.169 2.133-1.2 0-2.17-.953-2.17-2.133 0-1.178.97-2.131 2.17-2.131 1.198 0 2.169.953 2.169 2.13M59.55 66.764c0 1.18-.97 2.133-2.168 2.133-1.2 0-2.171-.953-2.171-2.133 0-1.178.97-2.131 2.171-2.131 1.197 0 2.169.953 2.169 2.13M68.902 66.764c0 1.18-.974 2.133-2.171 2.133-1.198 0-2.172-.953-2.172-2.133 0-1.178.974-2.131 2.172-2.131 1.197 0 2.17.953 2.17 2.13"/>
        <path fill="#C1BADC" d="M101.412 11.685L78.218 34.474c.02.119.032.242.032.366 0 1.18-.97 2.134-2.17 2.134-.129 0-.253-.01-.374-.032l-7.328 7.201c.326.373.524.859.524 1.39 0 1.178-.974 2.133-2.172 2.133-.54 0-1.033-.194-1.414-.515l-5.118 5.028h41.214V11.685m-6.636 14.599c-1.197 0-2.168-.954-2.168-2.134 0-1.177.97-2.132 2.168-2.132 1.2 0 2.171.955 2.171 2.132 0 1.18-.97 2.134-2.17 2.134m0 10.69c-1.198 0-2.17-.953-2.17-2.134 0-1.174.972-2.13 2.17-2.13 1.2 0 2.17.956 2.17 2.13 0 1.18-.97 2.134-2.17 2.134m-9.35 0c-1.197 0-2.17-.953-2.17-2.134 0-1.174.973-2.13 2.17-2.13 1.2 0 2.171.956 2.171 2.13 0 1.18-.97 2.134-2.17 2.134m9.348 10.692c-1.197 0-2.168-.955-2.168-2.133 0-1.18.97-2.133 2.168-2.133 1.2 0 2.171.953 2.171 2.133 0 1.178-.97 2.133-2.17 2.133m-9.35 0c-1.197 0-2.17-.955-2.17-2.133 0-1.18.973-2.133 2.17-2.133 1.2 0 2.171.953 2.171 2.133 0 1.178-.97 2.133-2.17 2.133m-9.348 0c-1.199 0-2.172-.955-2.172-2.133 0-1.18.973-2.133 2.172-2.133 1.2 0 2.17.953 2.17 2.133 0 1.178-.97 2.133-2.17 2.133M48.852 63.327l-1.41 1.386a2.195 2.195 0 0 1 1.41.077v-1.463m-2.91 2.858l-8.857 8.703h11.767V68.74a2.193 2.193 0 0 1-.819.158c-1.2 0-2.171-.953-2.171-2.133 0-.2.028-.395.08-.579"/>
        <path fill="#4474BD" d="M94.776 22.018c-1.197 0-2.168.955-2.168 2.132 0 1.18.97 2.134 2.168 2.134 1.2 0 2.171-.954 2.171-2.134 0-1.177-.971-2.132-2.17-2.132"/>
        <path fill="#6394DC" d="M78.218 34.474l-2.512 2.468c.122.021.246.032.373.032 1.2 0 2.171-.953 2.171-2.133 0-.125-.01-.248-.032-.367"/>
        <path fill="#4474BD" d="M85.427 32.71c-1.197 0-2.17.955-2.17 2.13 0 1.18.973 2.134 2.17 2.134 1.2 0 2.171-.954 2.171-2.134 0-1.175-.97-2.13-2.17-2.13M94.776 32.71c-1.197 0-2.168.955-2.168 2.13 0 1.18.97 2.134 2.168 2.134 1.2 0 2.171-.954 2.171-2.134 0-1.175-.971-2.13-2.17-2.13"/>
        <path fill="#6394DC" d="M68.377 44.143l-3.06 3.007c.38.322.874.516 1.414.516 1.197 0 2.17-.955 2.17-2.133 0-.531-.197-1.017-.524-1.39M76.08 43.4c-1.198 0-2.172.953-2.172 2.133 0 1.178.974 2.133 2.171 2.133 1.2 0 2.171-.955 2.171-2.133 0-1.18-.971-2.133-2.17-2.133"/>
        <path fill="#4474BD" d="M85.427 43.4c-1.197 0-2.17.953-2.17 2.133 0 1.178.973 2.133 2.17 2.133 1.2 0 2.171-.955 2.171-2.133 0-1.18-.97-2.133-2.17-2.133M94.776 43.4c-1.197 0-2.168.953-2.168 2.133 0 1.178.97 2.133 2.168 2.133 1.2 0 2.171-.955 2.171-2.133 0-1.18-.971-2.133-2.17-2.133"/>
        <path fill="#6394DC" d="M48.033 64.633c-.205 0-.403.028-.591.08l-1.499 1.472a2.09 2.09 0 0 0-.08.579c0 1.18.97 2.133 2.17 2.133.29 0 .566-.057.819-.158V64.79a2.193 2.193 0 0 0-.819-.157"/>
        <g transform="translate(32)">
            <mask id="d" fill="#fff">
                <use xlink:href="#c"/>
            </mask>
            <path fill="#9B6D01" d="M.173 15.539h70.106V5.312H.173z" mask="url(#d)"/>
            <path fill="#C5C5C5" d="M9.894 8.34c0 .854-.705 1.547-1.575 1.547S6.744 9.194 6.744 8.34V2.15C6.744 1.294 7.45.6 8.32.6s1.575.694 1.575 1.548v6.19zM20.71 8.34c0 .854-.704 1.547-1.573 1.547-.871 0-1.576-.693-1.576-1.547V2.15c0-.855.705-1.549 1.576-1.549.869 0 1.573.694 1.573 1.548v6.19zM31.528 8.34c0 .854-.705 1.547-1.575 1.547S28.38 9.194 28.38 8.34V2.15c0-.855.704-1.549 1.574-1.549.87 0 1.575.694 1.575 1.548v6.19zM42.345 8.34c0 .854-.704 1.547-1.574 1.547-.87 0-1.575-.693-1.575-1.547V2.15c0-.855.704-1.549 1.575-1.549.87 0 1.574.694 1.574 1.548v6.19zM53.162 8.34c0 .854-.705 1.547-1.574 1.547-.87 0-1.575-.693-1.575-1.547V2.15c0-.855.705-1.549 1.575-1.549s1.574.694 1.574 1.548v6.19zM63.98 8.34c0 .854-.705 1.547-1.575 1.547S60.83 9.194 60.83 8.34V2.15c0-.855.705-1.549 1.575-1.549s1.575.694 1.575 1.548v6.19z" mask="url(#d)"/>
            <path fill="#E67D8D" d="M40.651 24.703h-1.168a3.875 3.875 0 0 1-1.169 2.774 4.005 4.005 0 0 1-2.82 1.148 4.008 4.008 0 0 1-2.82-1.148 3.875 3.875 0 0 1 0-5.548 4.006 4.006 0 0 1 2.82-1.148c1.104 0 2.094.436 2.82 1.148a3.871 3.871 0 0 1 1.169 2.774h2.336c0-3.432-2.83-6.214-6.325-6.215-3.496 0-6.326 2.783-6.326 6.215s2.831 6.215 6.326 6.215c3.494 0 6.325-2.783 6.325-6.215h-1.168z" mask="url(#d)"/>
            <path fill="#FFF" d="M17.563 120h70.105V52.776H17.563z" mask="url(#d)"/>
        </g>
        <path fill="#D6D2E8" d="M120 57l-64 63h64z"/>
        <g>
            <path fill="#5ABDFE" d="M85.885 68.049c0 1.183-.977 2.14-2.182 2.14-1.206 0-2.182-.957-2.182-2.14 0-1.18.976-2.138 2.182-2.138 1.205 0 2.182.958 2.182 2.138M95.285 68.049c0 1.183-.977 2.14-2.182 2.14s-2.183-.957-2.183-2.14c0-1.18.978-2.138 2.183-2.138 1.205 0 2.182.958 2.182 2.138"/>
            <path fill="#2B85C9" d="M104.684 68.049c0 1.183-.976 2.14-2.181 2.14-1.206 0-2.183-.957-2.183-2.14 0-1.18.977-2.138 2.183-2.138 1.205 0 2.181.958 2.181 2.138M114.085 68.049c0 1.183-.978 2.14-2.182 2.14-1.206 0-2.182-.957-2.182-2.14 0-1.18.976-2.138 2.182-2.138 1.204 0 2.182.958 2.182 2.138"/>
            <path fill="#5ABDFE" d="M57.685 78.773c0 1.182-.977 2.14-2.182 2.14s-2.183-.958-2.183-2.14c0-1.181.978-2.138 2.183-2.138 1.205 0 2.182.957 2.182 2.138M67.086 78.773c0 1.182-.978 2.14-2.182 2.14-1.207 0-2.183-.958-2.183-2.14 0-1.181.976-2.138 2.183-2.138 1.204 0 2.182.957 2.182 2.138M76.484 78.773c0 1.182-.976 2.14-2.182 2.14-1.204 0-2.182-.958-2.182-2.14 0-1.181.978-2.138 2.182-2.138 1.206 0 2.182.957 2.182 2.138M85.885 78.773c0 1.182-.977 2.14-2.182 2.14-1.206 0-2.182-.958-2.182-2.14 0-1.181.976-2.138 2.182-2.138 1.205 0 2.182.957 2.182 2.138M95.285 78.773c0 1.182-.977 2.14-2.182 2.14s-2.183-.958-2.183-2.14c0-1.181.978-2.138 2.183-2.138 1.205 0 2.182.957 2.182 2.138"/>
            <path fill="#2B85C9" d="M104.684 78.773c0 1.182-.976 2.14-2.181 2.14-1.206 0-2.183-.958-2.183-2.14 0-1.181.977-2.138 2.183-2.138 1.205 0 2.181.957 2.181 2.138M114.085 78.773c0 1.182-.978 2.14-2.182 2.14-1.206 0-2.182-.958-2.182-2.14 0-1.181.976-2.138 2.182-2.138 1.204 0 2.182.957 2.182 2.138"/>
            <path fill="#5ABDFE" d="M57.685 89.496c0 1.183-.977 2.14-2.182 2.14s-2.183-.957-2.183-2.14c0-1.182.978-2.139 2.183-2.139 1.205 0 2.182.957 2.182 2.14M67.086 89.496c0 1.183-.978 2.14-2.182 2.14-1.207 0-2.183-.957-2.183-2.14 0-1.182.976-2.139 2.183-2.139 1.204 0 2.182.957 2.182 2.14M76.484 89.496c0 1.183-.976 2.14-2.182 2.14-1.204 0-2.182-.957-2.182-2.14 0-1.182.978-2.139 2.182-2.139 1.206 0 2.182.957 2.182 2.14M85.885 89.496c0 1.183-.977 2.14-2.182 2.14-1.206 0-2.182-.957-2.182-2.14 0-1.182.976-2.139 2.182-2.139 1.205 0 2.182.957 2.182 2.14M95.285 89.496c0 1.183-.977 2.14-2.182 2.14s-2.183-.957-2.183-2.14c0-1.182.978-2.139 2.183-2.139 1.205 0 2.182.957 2.182 2.14"/>
            <path fill="#2B85C9" d="M104.684 89.496c0 1.183-.976 2.14-2.181 2.14-1.206 0-2.183-.957-2.183-2.14 0-1.182.977-2.139 2.183-2.139 1.205 0 2.181.957 2.181 2.14M114.085 89.496c0 1.183-.978 2.14-2.182 2.14-1.206 0-2.182-.957-2.182-2.14 0-1.182.976-2.139 2.182-2.139 1.204 0 2.182.957 2.182 2.14"/>
            <path fill="#5ABDFE" d="M57.685 100.07c0 1.183-.977 2.14-2.182 2.14s-2.183-.957-2.183-2.14c0-1.181.978-2.138 2.183-2.138 1.205 0 2.182.957 2.182 2.137M67.086 100.07c0 1.183-.978 2.14-2.182 2.14-1.207 0-2.183-.957-2.183-2.14 0-1.181.976-2.138 2.183-2.138 1.204 0 2.182.957 2.182 2.137M76.484 100.07c0 1.183-.976 2.14-2.182 2.14-1.204 0-2.182-.957-2.182-2.14 0-1.181.978-2.138 2.182-2.138 1.206 0 2.182.957 2.182 2.137M85.885 100.07c0 1.183-.977 2.14-2.182 2.14-1.206 0-2.182-.957-2.182-2.14 0-1.181.976-2.138 2.182-2.138 1.205 0 2.182.957 2.182 2.137M95.285 100.07c0 1.183-.977 2.14-2.182 2.14s-2.183-.957-2.183-2.14c0-1.181.978-2.138 2.183-2.138 1.205 0 2.182.957 2.182 2.137"/>
            <path fill="#2B85C9" d="M104.684 100.07c0 1.183-.976 2.14-2.181 2.14-1.206 0-2.183-.957-2.183-2.14 0-1.181.977-2.138 2.183-2.138 1.205 0 2.181.957 2.181 2.137M114.085 100.07c0 1.183-.978 2.14-2.182 2.14-1.206 0-2.182-.957-2.182-2.14 0-1.181.976-2.138 2.182-2.138 1.204 0 2.182.957 2.182 2.137"/>
            <path fill="#5ABDFE" d="M57.685 110.793c0 1.183-.977 2.14-2.182 2.14s-2.183-.957-2.183-2.14c0-1.182.978-2.139 2.183-2.139 1.205 0 2.182.957 2.182 2.14M67.086 110.793c0 1.183-.978 2.14-2.182 2.14-1.207 0-2.183-.957-2.183-2.14 0-1.182.976-2.139 2.183-2.139 1.204 0 2.182.957 2.182 2.14M76.484 110.793c0 1.183-.976 2.14-2.182 2.14-1.204 0-2.182-.957-2.182-2.14 0-1.182.978-2.139 2.182-2.139 1.206 0 2.182.957 2.182 2.14M85.885 110.793c0 1.183-.977 2.14-2.182 2.14-1.206 0-2.182-.957-2.182-2.14 0-1.182.976-2.139 2.182-2.139 1.205 0 2.182.957 2.182 2.14"/>
            <path fill="#E67D8D" d="M88.874 68.094h-1.171a3.868 3.868 0 0 1-1.172 2.774 4.022 4.022 0 0 1-2.828 1.148c-1.108 0-2.1-.436-2.828-1.148a3.868 3.868 0 0 1 0-5.546 4.02 4.02 0 0 1 2.828-1.149c1.108 0 2.1.436 2.828 1.148a3.867 3.867 0 0 1 1.172 2.773H90.045c0-3.43-2.837-6.213-6.342-6.214-3.504.002-6.34 2.784-6.342 6.214 0 3.433 2.839 6.214 6.342 6.215 3.504 0 6.342-2.783 6.342-6.215h-1.171z"/>
            <path fill="#9B6D01" d="M112.628 49.21c.136.262.22.554.22.868 0 1.057-.873 1.913-1.951 1.913s-1.952-.856-1.952-1.913c0-.314.085-.606.221-.868h-7.383c.137.262.223.554.223.868 0 1.057-.876 1.913-1.952 1.913-1.078 0-1.953-.856-1.953-1.913 0-.314.085-.606.222-.868h-7.298c.137.262.222.554.222.868 0 1.057-.875 1.913-1.952 1.913-1.078 0-1.953-.856-1.953-1.913 0-.314.085-.606.222-.868h-7.469c.138.262.222.554.222.868 0 1.057-.875 1.913-1.952 1.913-1.078 0-1.952-.856-1.952-1.913 0-.314.085-.606.221-.868h-7.383c.137.262.222.554.222.868 0 1.057-.874 1.913-1.952 1.913-1.078 0-1.952-.856-1.952-1.913 0-.314.085-.606.221-.868h-7.383c.137.262.221.554.221.868 0 1.057-.873 1.913-1.952 1.913-1.078 0-1.951-.856-1.951-1.913 0-.314.084-.606.22-.868H48.43v10.226h70.28V49.21h-6.082z"/>
            <path fill="#B9993D" d="M136.39 29.962c-.002 5.169-4.28 9.358-9.554 9.355-5.275-.003-9.55-4.195-9.548-9.364.002-5.173 4.283-9.364 9.557-9.36 5.274.002 9.55 4.197 9.545 9.369"/>
            <path fill="#F7CC51" d="M136.392 28.556c-.003 5.17-4.28 9.36-9.555 9.358-5.275-.003-9.55-4.198-9.547-9.367.002-5.17 4.282-9.36 9.556-9.359 5.275.003 9.548 4.197 9.546 9.368"/>
        </g>
        <g transform="translate(118 19)">
            <mask id="f" fill="#fff">
                <use xlink:href="#e"/>
            </mask>
            <path fill="#E9B642" d="M.41 21.734L21.64-.353l5.13 27.456z" mask="url(#f)"/>
        </g>
        <path fill="#FFF" d="M129.7 30.622c0-.846-.38-1.188-2.168-1.91-2.593-1.048-3.364-1.844-3.364-3.46 0-1.589 1.138-2.736 2.933-3.078V20h.077l2.073 1.057v1.078c.719.094 1.34.291 1.93.593l.113.06.075.036-.014.08-.022.114-.267 1.497-.052.281-.03.188-.17-.116-.257-.171c-.7-.48-1.569-.754-2.395-.754-1.113 0-1.718.445-1.718 1.197 0 .704.39 1.03 2.154 1.75 2.599 1.055 3.402 1.895 3.402 3.62 0 1.603-1.134 2.78-2.749 3.203V36h-.127l-2.023-1.04v-1.104c-1.078-.079-2.054-.329-2.887-.721l-.131-.058-.083-.037.008-.078.017-.119.25-1.53.044-.267.029-.175.165.098.251.146c.971.573 2.052.894 3.06.894 1.168 0 1.877-.529 1.877-1.387"/>
    </g>
</svg>
