<svg xmlns="http://www.w3.org/2000/svg" xmlns:xlink="http://www.w3.org/1999/xlink" width="24" height="24" viewBox="0 0 24 24">
    <defs> </defs>
    <g fill="none" fill-rule="evenodd">
        <path fill="#FFF" id="a" d="M11.083 11.752V7.967l1.834-1.834v6.417h-.04l-2.115 2.115-2.596.003 2.917-2.916zm-7.99-6.208C5.093 2.79 8.337 1 12 1c6.075 0 11 4.925 11 11s-4.925 11-11 11c-4.949 0-9.135-3.268-10.516-7.764l2.629-.81A8.25 8.25 0 1 0 5.19 7.342L7.417 9.25 1 11.083V3.75l2.093 1.794z"/>
    </g>
</svg>
