<svg xmlns="http://www.w3.org/2000/svg" xmlns:xlink="http://www.w3.org/1999/xlink" width="147" height="54" viewBox="0 0 147 54">
    <defs>
        <path id="b" d="M0 0h1440v94H0z"/>
        <path id="c" d="M69.759 49.333h-1.016L72.6 38.396h1.118l3.842 10.849-1.03.177-1.193-3.445h-4.416l-1.162 3.356zm3.356-9.7l-1.87 5.417h3.769l-1.87-5.417h-.03zm7.433 9.7h-1.045V38.441h3.621c2.356 0 3.813.956 3.813 2.973 0 2.208-1.62 3.091-3.916 3.091h-2.473v4.828zm0-9.936v4.18h2.547c1.796 0 2.797-.573 2.797-2.134 0-1.472-.987-2.046-2.812-2.046h-2.532zm9.612 9.936h-1.045V38.441h1.045v10.892zm8.906 1.855h-7.36v-.824h7.36v.824zm2.37-1.855h-.972V38.441h1.355l3.65 9.538h.03l3.636-9.538h1.369v10.892h-1.046v-9.14h-.029c-.147.5-.412 1.221-.677 1.913l-2.826 7.227h-.957l-2.826-7.227c-.265-.692-.442-1.148-.678-1.929h-.029v9.156zm13.572-.706c1.09 0 2.046-.457 2.84-1.222v-2.414c-3.414.589-4.253 1.398-4.253 2.4 0 .809.53 1.236 1.413 1.236zm-.221.839c-1.384 0-2.193-.75-2.193-1.958 0-1.53 1.31-2.635 5.255-3.238v-.398c0-1.06-.574-1.59-1.59-1.59-1.207 0-2.046.486-2.87 1.222l-.574-.633c.927-.854 1.943-1.442 3.518-1.442 1.722 0 2.517.927 2.517 2.473v5.431h-.898l-.103-1.104c-.898.795-1.9 1.237-3.062 1.237zm7.345-.133h-1.015v-7.742h.912l.103 1.516h.03c.589-.942 1.53-1.678 3.047-1.678h.103l.088.942c-.03-.015-.338-.015-.368-.015-1.28 0-2.31.707-2.9 1.928v5.05zm5.8 0h-1.016V38.514l1.016-.147v7.301l3.695-4.077h1.192l-2.532 2.723 2.812 4.931-1.001.177-2.488-4.343-1.678 1.81v2.444zm9.583.162c-1.958 0-3.548-1.398-3.548-4.048 0-2.738 1.767-4.018 3.4-4.018 1.796 0 3.165 1.383 3.165 4.033v.191h-5.55c.016 1.9 1.105 2.988 2.547 2.988 1.03 0 1.767-.397 2.488-1.148l.5.663c-.853.898-1.707 1.34-3.002 1.34zm-2.517-4.637h4.548c-.103-1.472-.81-2.576-2.193-2.576-1.119 0-2.179.84-2.355 2.576zm10.01 4.578c-1.384 0-2.047-.53-2.047-1.943v-5.049h-1.34v-.853h1.34v-2.724l1.016-.147v2.87h2.016v.854h-2.016v4.902c0 .824.309 1.237 1.207 1.237.28 0 .56-.045.765-.103l.118.868c-.25.044-.677.088-1.06.088z"/>
    </defs>
    <g fill="none" fill-rule="evenodd">
        <g fill-rule="nonzero">
            <g>
                <use fill="#49A5E6" xlink:href="#c"/>
            </g>
            <path fill="#FFF" d="M70.254 4.216l-8.465 15.98a.499.499 0 0 1-.88 0l-8.432-15.98a.507.507 0 0 0-.432-.257h-4.08a.366.366 0 0 0-.323.53l13.275 24.726a.49.49 0 0 0 .83 0L75.04 4.464a.363.363 0 0 0-.324-.538h-4.062a.49.49 0 0 0-.432.256M75.046 25.262l8.422-15.98a.507.507 0 0 1 .889 0l8.43 15.98a.49.49 0 0 0 .432.257h4.078a.366.366 0 0 0 .316-.538L84.34.229a.49.49 0 0 0-.83 0L70.22 24.981a.363.363 0 0 0 .324.538h4.07c.18-.004.344-.101.432-.257M18.1 15.697a5.502 5.502 0 0 0 2.831-5.1c0-3.976-3.086-6.671-7.406-6.671H.976a.476.476 0 0 0-.485.48v24.55c0 .27.217.488.485.488h11.965c5.982 0 9.142-2.587 9.142-7.654 0-5.068-3.982-6.093-3.982-6.093M5.173 7.613h7.406c2.74 0 4.114 1.174 4.114 3.306 0 2.133-1.39 3.307-4.114 3.307H5.173a.478.478 0 0 1-.477-.48V8.102a.481.481 0 0 1 .477-.488m7.521 18.128H5.173a.477.477 0 0 1-.486-.488v-6.778a.48.48 0 0 1 .486-.48h7.521c3.588 0 5.193 1.017 5.193 3.87 0 2.851-1.564 3.876-5.193 3.876M43.612 15.697a5.487 5.487 0 0 0 2.805-5.1c0-3.976-3.084-6.671-7.403-6.671h-12.52a.486.486 0 0 0-.485.48v24.55c.005.268.22.484.486.488h11.96c5.988 0 9.147-2.587 9.147-7.654 0-5.068-3.99-6.093-3.99-6.093M30.698 7.613H38.1c2.731 0 4.113 1.174 4.113 3.306 0 2.133-1.382 3.307-4.113 3.307h-7.403a.476.476 0 0 1-.485-.48V8.1a.481.481 0 0 1 .485-.487m7.494 18.128H30.69a.476.476 0 0 1-.477-.488v-6.778c0-.265.213-.48.477-.48h7.502c3.586 0 5.182 1.017 5.182 3.87 0 2.851-1.563 3.876-5.182 3.876"/>
        </g>
    </g>
</svg>
