<svg xmlns="http://www.w3.org/2000/svg" xmlns:xlink="http://www.w3.org/1999/xlink" width="24" height="24" viewBox="0 0 24 24">
    <defs></defs>
    <g fill="none" fill-rule="evenodd">
        <path fill="#FFF" id="a" d="M1 8h13.538l1.693-1.6H1V5.004A.999.999 0 0 1 2 4h16.615c.552 0 1 .456 1 1.004v10.792a.999.999 0 0 1-1 1.004H2C1.448 16.8 1 16.344 1 15.796V8zm20.308 10.4V7.2L23 5.6V20H2.692l1.693-1.6h16.923zm-10.154-5.6v1.6h3.384l1.693-1.6h-5.077z"/>
    </g>
</svg>
