<svg xmlns="http://www.w3.org/2000/svg" xmlns:xlink="http://www.w3.org/1999/xlink" width="24" height="24" viewBox="0 0 24 24">
    <defs></defs>
    <g fill="none" fill-rule="evenodd">
        <path fill="#FFF" id="a" d="M12 1v8.25h3.681l1.652-1.767h-3.68V1h1.014L20 6.5v15.493c0 .556-.445 1.007-1 1.007H5c-.552 0-1-.44-1-1.002V2.002A1 1 0 0 1 5.003 1H12z"/>
    </g>
</svg>
