<?xml version="1.0" encoding="UTF-8"?>
<svg width="60px" height="90px" viewBox="0 0 93 142" version="1.1" xmlns="http://www.w3.org/2000/svg" xmlns:xlink="http://www.w3.org/1999/xlink">
    <!-- Generator: Sketch 49.3 (51167) - http://www.bohemiancoding.com/sketch -->
    <title>Launch</title>
    <desc>Created with Sketch.</desc>
    <defs></defs>
    <g id="sign-in" stroke="none" stroke-width="1" fill="none" fill-rule="evenodd">
        <g id="portal-home" transform="translate(-1017.000000, -1191.000000)">
            <g id="Launch" transform="translate(1019.000000, 1191.000000)">
                <path d="M58.6,87.5508495 L55,78.5854819 L55,53.5523823 L64,62.51775 L64,31.4294411 C64,18.7416528 57.4642,6.96474586 46.7308,0.208444798 C46.2898,-0.0694815993 45.7102,-0.0694815993 45.2692,0.208444798 C34.5358,6.96474586 28,18.7416528 28,31.4294411 L28,62.51775 L37,53.5523823 L37,78.5854819 L33.4,87.5508495 L33.4,93 L58.6,93 L58.6,87.5508495" id="Fill-233-Copy-2" fill="#D7D7D5"></path>
                <path d="M9.13662752,30.3339965 L9,30.3339965 C9.05910163,30.0112269 9.12670912,24.7864595 9.20266496,24.4685121 C10.3343296,19.7314192 13.3191576,15.5642127 17.6362255,13 C21.9842826,15.5826195 25.7084539,19.7913288 26.8214187,24.5706129 C26.8677762,24.7696808 26.9108657,27.3720198 26.9506488,29.0149217 L26.9665188,29.0149217 L26.9665188,29.617479 C26.9779664,30.0071955 26.9891271,30.2746169 27,30.3339965 L26.9665188,30.3339965 L26.9665188,63.0741109 L9.13662752,81 L9.13662752,30.3339965 Z" id="Combined-Shape-Copy-4" stroke="#252525" stroke-width="3.40277778" fill="#FFFFFF"></path>
                <path d="M62.1701088,30.4162919 L62,30.4162919 C62.0591016,30.0919898 62.1267091,24.8424172 62.202665,24.5229603 C63.3343296,19.7633774 66.3191576,15.5763867 70.6362255,13 C74.9842826,15.5948808 78.7084539,19.8235715 79.8214187,24.6255458 C79.8648537,24.8129496 79.9054198,27.1201775 79.9430854,28.7681159 L80,28.7681159 L80,62.9890055 L62.1701088,81 L62.1701088,30.4162919 Z" id="Fill-133-Copy-2" stroke="#252525" stroke-width="3.40277778" fill="#FFFFFF" transform="translate(71.000000, 47.000000) scale(-1, 1) translate(-71.000000, -47.000000) "></path>
                <path d="M83.3016854,104 L61.6983146,104 C61.124025,104 60.7963739,103.332667 61.1402275,102.865167 L63.4985955,93 L81.5014045,93 L83.8597725,102.865167 C84.2036261,103.332667 83.875975,104 83.3016854,104" id="Fill-419-Copy-2" fill="#252525"></path>
                <path d="M30.3016854,104 L8.69831459,104 C8.12402499,104 7.79637386,103.332667 8.14022751,102.865167 L10.4985955,93 L28.5014045,93 L30.8597725,102.865167 C31.2036261,103.332667 30.875975,104 30.3016854,104" id="Fill-420-Copy-2" fill="#252525"></path>
                <polyline id="Fill-422-Copy-2" stroke="#DA0011" stroke-width="2.72222222" fill="#DA0011" points="56.6 92 89 92 89 88.4545455 53 53 53 77.7490455 56.6 86.6126818 56.6 92"></polyline>
                <polyline id="Fill-423-Copy-2" stroke="#DA0011" stroke-width="2.72222222" fill="#DA0011" points="32.4 91.9308636 32.4 86.6126818 36 77.7490455 36 53 0 88.4545455 0 92 32.4 92 32.4 91.9308636"></polyline>
                <polyline id="Fill-429-Copy-2" fill="#252525" points="54 99 36 99 37.8 94 52.2 94 54 99"></polyline>
                <path d="M54.4285714,78.6046651 L54.4285714,32.0467962 C54.4285714,26.4616427 52.2160714,21.1039064 48.2767857,17.1536503 C46.7428571,15.6154499 44.2571429,15.6154499 42.7232143,17.1536503 C38.7839286,21.1039064 36.5714286,26.4616427 36.5714286,32.0467962 L36.5714286,78.6046651 L33,87.5581014 L33,93 L58,93 L58,87.5581014 L54.4285714,78.6046651" id="Fill-421-Copy-2" stroke="#252525" stroke-width="3.40277778" fill="#FFFFFF"></path>
                <path d="M42,75 L42,80 M49.2,75 L49.2,80" id="Stroke-428-Copy-2" stroke="#D7D7D5" stroke-width="2.72222222"></path>
                <path d="M49,34 L42,34 L42,30.5 C42,28.56625 43.56625,27 45.5,27 C47.43375,27 49,28.56625 49,30.5 L49,34" id="Fill-427-Copy-2" fill="#D7D7D5"></path>
                <path d="M45,92 L45,85" id="Stroke-1101-Copy-2" stroke="#252525" stroke-width="2.72222222"></path>
                <path d="M12,110 L12,120 M19.1111111,106 L19.1111111,116 M26.2222222,110 L26.2222222,120" id="Stroke-428-Copy-2" stroke="#DA0011" stroke-width="3.40277778"></path>
                <path d="M45.1111111,127.384615 L45.1111111,142 M45.1111111,104 L45.1111111,122.791209 M52.2222222,115.413919 L52.2222222,134.205128 M38,117.362637 L38,127.106227" id="Stroke-428-Copy-4" stroke="#DA0011" stroke-width="3.40277778"></path>
                <path d="M66,110 L66,120 M73.1111111,106 L73.1111111,116 M80.2222222,110 L80.2222222,120" id="Stroke-428-Copy-3" stroke="#DA0011" stroke-width="3.40277778"></path>
            </g>
        </g>
    </g>
</svg>
