<?xml version="1.0" encoding="UTF-8"?>
<svg width="304px" height="300px" viewBox="0 0 304 300" version="1.1" xmlns="http://www.w3.org/2000/svg" xmlns:xlink="http://www.w3.org/1999/xlink">
    <!-- Generator: Sketch 55.1 (78136) - https://sketchapp.com -->
    <title>Verify_UC</title>
    <desc>Created with Sketch.</desc>
    <defs>
        <linearGradient x1="49.9999955%" y1="99.9890645%" x2="49.9999955%" y2="-0.00273388376%" id="linearGradient-1">
            <stop stop-color="#808080" stop-opacity="0.25" offset="0%"></stop>
            <stop stop-color="#808080" stop-opacity="0.12" offset="54%"></stop>
            <stop stop-color="#808080" stop-opacity="0.1" offset="100%"></stop>
        </linearGradient>
    </defs>
    <g id="MVP" stroke="none" stroke-width="1" fill="none" fill-rule="evenodd">
        <g id="VerifyWithCapitalOne" transform="translate(-281.000000, -1291.000000)">
            <g id="Use-Cases" transform="translate(-16.000000, 1110.000000)">
                <g id="Group-2" transform="translate(297.000000, 181.000000)">
                    <g id="Verify_UC">
                        <circle id="Oval" fill="#ECEDF1" cx="150" cy="150" r="150"></circle>
                        <path d="M66.3183219,149.164432 C66.3183219,170.618969 66.3183219,186.070313 66.2265923,189.454116 C66.1348627,195.090391 61.2833854,197.689397 56.5032533,197.760742 L56.4115237,197.760742 C51.5906229,197.760742 46.6168393,195.182121 46.3518427,189.413348 C45.8931946,179.32309 46.1479991,157.89913 46.2703052,149.15424 L46.2703052,148.26752 L66.3183219,148.26752 L66.3183219,149.164432 Z" id="Shape-path" fill="#F7F8F9"></path>
                        <path d="M107.820876,197.60786 L65.5029475,197.60786 L66.7463934,196.119802 C68.3387864,194.220869 69.2087912,191.820233 69.2027086,189.342003 C69.2638617,185.509743 69.284246,164.931733 69.3046304,143.151046 L69.3046304,142.5599 C69.3046304,96.6950926 69.4065522,33.8297311 69.8040472,24.3306201 C70.0690438,17.9197393 75.3485927,15.0863134 80.5669885,15.0863134 L80.8625617,15.0863134 C85.6936547,15.1882352 90.8916661,17.9197393 90.8916661,23.6681283 C90.8916661,25.8390626 90.8916661,30.4357354 90.8916661,36.5714273 C90.8101287,62.7245594 90.6368616,117.018299 91.1260862,130.726779 C91.3605063,137.300735 95.8042966,144.374108 104.997642,144.374108 L105.181101,144.374108 L105.527636,144.374108 L105.792632,144.374108 L138.9376,144.160072 L138.9376,145.08756 C138.794909,154.678401 138.621641,162.261382 138.529912,166.103833 L141.587566,166.164987 C141.821986,155.035127 142.504862,119.627497 142.16852,109.170321 C142.168949,106.005626 141.0904,102.935356 139.110866,100.466199 L137.867421,98.9883331 L231.798545,98.9883331 C234.774661,99.0902546 236.894634,99.864861 238.260386,101.352919 C239.870751,103.105974 240.52305,105.868054 240.298822,110.05704 C240.033826,115.367165 240.227477,153.699952 240.298822,165.849029 L107.820876,197.60786 Z" id="Shape-path" fill="#FFFFFF"></path>
                        <path d="M191.498667,96.1650992 L128.877919,96.1650992 C122.467037,96.2262524 115.577125,100.578313 115.414049,108.538405 C115.271359,116.192732 115.414049,119.026158 115.505779,121.788238 C115.607701,124.326091 115.709622,126.721253 115.617893,132.663293 C115.536356,138.299569 110.521803,141.214532 105.935323,141.53049 L105.068987,141.53049 L104.416688,141.53049 C99.6161715,141.316454 94.3977758,138.381106 94.1327791,130.808317 C93.6435545,117.232334 93.8168216,63.1730152 93.898359,37.1931503 L93.898359,36.775271 C93.898359,30.6599634 93.898359,26.032714 93.898359,23.8617798 C93.9590325,21.246985 93.0433349,18.7033808 91.3299298,16.7272543 L90.0660996,15.2391961 L183.742419,15.2391961 C185.706559,15.0405268 187.662685,15.6851589 189.12389,17.0126354 C190.836176,18.643384 191.773857,21.4360411 191.773857,24.8809977 C191.773857,28.3259543 191.773857,53.1235265 191.773857,72.7027029 L191.773857,96.1447151 L191.498667,96.1650992 Z" id="Shape-path" fill="#FFFFFF"></path>
                        <path d="M139.100674,109.414933 C139.253557,114.011606 139.212788,124.448397 138.998752,140.40935 L138.998752,141.29607 L114.537522,141.448952 L115.872697,139.94051 C117.65003,137.940844 118.632711,135.359042 118.634778,132.683678 C118.726508,126.639716 118.634778,124.091671 118.512472,121.635356 C118.400358,118.903851 118.288244,116.111194 118.430935,108.599558 C118.55324,102.484251 123.812405,99.2125611 128.939071,99.1817276 C133.688627,99.1514079 138.856061,101.842143 139.100674,109.414933 L139.100674,109.414933 Z" id="Shape-path" fill="#F7F8F9"></path>
                        <path d="M231.818929,96.0937539 L194.800934,96.0937539 L194.800934,72.7230872 C194.800934,53.1439108 194.800934,28.4278761 194.800934,24.8198446 C194.800934,20.5493216 193.526912,16.9820588 191.223479,14.780548 C189.19005,12.8994655 186.463147,11.953548 183.701651,12.1713502 L80.3733371,12.1713502 C74.0847625,12.2528876 67.123504,16.085147 66.8279309,24.2898513 C66.4304359,33.7787702 66.3692828,96.582979 66.3183219,142.437593 L66.3183219,145.128328 L46.5658785,145.128328 L43.3247655,145.067176 C43.2432281,149.510966 42.7947721,177.417152 43.3247655,189.433732 C43.6611074,196.802678 50.1025647,200.64513 56.2994097,200.64513 L56.8192108,200.64513 L57.9913114,200.583976 L57.9913114,200.665514 L107.820876,200.665514 L107.820876,197.60786 L65.5029475,197.60786 L66.7463934,196.119802 C68.3387864,194.220869 69.2087912,191.820233 69.2027086,189.342003 C69.2638617,185.509743 69.284246,164.931733 69.3046304,143.151046 L69.3046304,142.5599 C69.3046304,96.6950926 69.4065522,33.8297311 69.8040472,24.3306201 C70.0690438,17.9197393 75.3485927,15.0863134 80.5669885,15.0863134 L80.8625617,15.0863134 C85.6936547,15.1882352 90.8916661,17.9197393 90.8916661,23.6681283 C90.8916661,25.8390626 90.8916661,30.4357354 90.8916661,36.5714273 C90.8101287,62.7245594 90.6368616,117.018299 91.1260862,130.726779 C91.3605063,137.300735 95.8042966,144.374108 104.997642,144.374108 L105.181101,144.374108 L105.527636,144.374108 L105.792632,144.374108 L138.9376,144.160072 L138.9376,145.08756 C138.794909,154.678401 138.621641,162.261382 138.529912,166.103833 L141.587566,166.164987 C141.821986,155.035127 142.504862,119.627497 142.16852,109.170321 C142.168949,106.005626 141.0904,102.935356 139.110866,100.466199 L137.867421,98.9883331 L231.798545,98.9883331 C234.774661,99.0902546 236.894634,99.864861 238.260386,101.352919 C239.870751,103.105974 240.52305,105.868054 240.298822,110.05704 C240.033826,115.367165 240.227477,153.699952 240.298822,165.849029 L243.356476,165.849029 C243.356476,159.468725 243.081287,115.744276 243.356476,110.220115 C243.519551,107.040155 243.356476,102.453674 240.512858,99.3246755 C238.515191,97.3372004 235.620612,96.2160604 231.818929,96.0937539 Z M66.3183219,149.164432 C66.3183219,170.618969 66.3183219,186.070313 66.2265923,189.454116 C66.1348627,195.090391 61.2833854,197.689397 56.5032533,197.760742 L56.4115237,197.760742 C51.5906229,197.760742 46.6168393,195.182121 46.3518427,189.413348 C45.8931946,179.32309 46.1479991,157.89913 46.2703052,149.15424 L46.2703052,148.26752 L66.3183219,148.26752 L66.3183219,149.164432 Z M139.100674,109.414933 C139.253557,114.011606 139.212788,124.448397 138.998752,140.40935 L138.998752,141.29607 L114.537522,141.448952 L115.872697,139.94051 C117.65003,137.940844 118.632711,135.359042 118.634778,132.683678 C118.726508,126.639716 118.634778,124.091671 118.512472,121.635356 C118.400358,118.903851 118.288244,116.111194 118.430935,108.599558 C118.55324,102.484251 123.812405,99.2125611 128.939071,99.1817276 C133.688627,99.1514079 138.856061,101.842143 139.100674,109.414933 L139.100674,109.414933 Z M191.498667,96.1650992 L128.877919,96.1650992 C122.467037,96.2262524 115.577125,100.578313 115.414049,108.538405 C115.271359,116.192732 115.414049,119.026158 115.505779,121.788238 C115.607701,124.326091 115.709622,126.721253 115.617893,132.663293 C115.536356,138.299569 110.521803,141.214532 105.935323,141.53049 L105.068987,141.53049 L104.416688,141.53049 C99.6161715,141.316454 94.3977758,138.381106 94.1327791,130.808317 C93.6435545,117.232334 93.8168216,63.1730152 93.898359,37.1931503 L93.898359,36.775271 C93.898359,30.6599634 93.898359,26.032714 93.898359,23.8617798 C93.9590325,21.246985 93.0433349,18.7033808 91.3299298,16.7272543 L90.0660996,15.2391961 L183.742419,15.2391961 C185.706559,15.0405268 187.662685,15.6851589 189.12389,17.0126354 C190.836176,18.643384 191.773857,21.4360411 191.773857,24.8809977 C191.773857,28.3259543 191.773857,53.1235265 191.773857,72.7027029 L191.773857,96.1447151 L191.498667,96.1650992 Z" id="Shape" fill="#F0F0F0" fill-rule="nonzero"></path>
                        <path d="M149.201124,162.057539 L149.201124,162.057539 C148.075327,162.057539 147.162688,161.1449 147.162688,160.019103 L147.213649,155.942231 C147.213649,154.816434 148.126288,153.903795 149.252085,153.903795 C150.377882,153.903795 151.29052,154.816434 151.29052,155.942231 L151.23956,160.019103 C151.23956,161.1449 150.326921,162.057539 149.201124,162.057539 Z M104.039577,152.456506 C103.846421,152.456506 103.654245,152.429052 103.468815,152.374968 C102.001418,151.949824 100.591299,151.347444 99.2696374,150.581144 C98.5786695,150.249731 98.1319588,149.558785 98.1133546,148.792674 C98.0947504,148.026564 98.5073964,147.314749 99.1814633,146.950187 C99.8555302,146.585625 100.677111,146.62992 101.308073,147.064843 C102.340942,147.665049 103.443,148.137359 104.589955,148.471364 C105.563806,148.755404 106.180603,149.712308 106.037142,150.71654 C105.89368,151.720773 105.033621,152.466698 104.019193,152.466698 L104.039577,152.456506 Z M114.089066,152.456506 C113.078044,152.465111 112.213495,151.731334 112.057645,150.73236 C111.901794,149.733385 112.501745,148.771132 113.467343,148.471364 C114.559463,148.127561 115.591132,147.615165 116.524997,146.952729 C117.115877,146.508018 117.901269,146.41821 118.577286,146.718056 C119.253304,147.017902 119.713899,147.660364 119.780858,148.396858 C119.847817,149.133352 119.510634,149.848344 118.899775,150.265187 C117.617723,151.176624 116.200827,151.881633 114.700597,152.354584 C114.501015,152.405756 114.294829,152.426376 114.089066,152.415737 L114.089066,152.456506 Z M149.384583,147.819064 L149.384583,147.819064 C148.258786,147.819064 147.346147,146.906425 147.346147,145.780628 L147.346147,141.703757 C147.346147,140.57796 148.258786,139.66532 149.384583,139.66532 C150.51038,139.66532 151.423019,140.57796 151.423019,141.703757 L151.423019,145.780628 C151.400817,146.890473 150.494649,147.778518 149.384583,147.778295 L149.384583,147.819064 Z M94.0818182,143.049126 C93.1758468,143.049126 92.3785918,142.451183 92.1249198,141.58145 C91.6970838,140.087004 91.4843083,138.539235 91.4930047,136.984777 C91.4930047,135.85898 92.4056435,134.946342 93.5314406,134.946342 C94.6572376,134.946342 95.5698764,135.85898 95.5698764,136.984777 C95.5622844,138.149501 95.7201405,139.309401 96.0387166,140.429734 C96.2222606,141.047036 96.1032962,141.714769 95.7178538,142.2307 C95.3324114,142.746631 94.7258288,143.050073 94.0818182,143.049126 Z M124.362783,139.889548 L122.324347,139.889548 L120.285911,139.736666 C120.347064,138.299569 120.398025,136.984777 120.428602,135.761716 C120.461911,134.639785 121.395937,133.755878 122.517998,133.784433 C123.639929,133.817743 124.523836,134.751768 124.495281,135.87383 C124.434128,137.086699 124.362783,138.432067 124.362783,139.889548 Z M149.568042,133.519436 L149.568042,133.519436 C148.442245,133.519436 147.529606,132.606798 147.529606,131.481001 L147.529606,127.404129 C147.529606,126.278332 148.442245,125.365693 149.568042,125.365693 L149.568042,125.365693 C150.693839,125.365693 151.606478,126.278332 151.606478,127.404129 L151.606478,131.481001 C151.601115,132.023425 151.379773,132.54134 150.991451,132.920098 C150.603128,133.298856 150.079855,133.507216 149.537465,133.499052 L149.568042,133.519436 Z M122.416077,127.669127 C121.328911,127.670486 120.431998,126.818419 120.377641,125.732612 C120.306295,124.213977 120.204374,122.939955 120.112644,121.727085 C120.025395,120.601288 120.867304,119.61792 121.993102,119.530671 C123.118898,119.443422 124.102266,120.285331 124.189516,121.411128 C124.291438,122.654573 124.383167,123.969364 124.464704,125.487999 C124.516614,126.610418 123.650463,127.563184 122.528191,127.618165 L122.416077,127.669127 Z M149.669964,119.240194 L149.669964,119.240194 C148.544167,119.240194 147.631528,118.327554 147.631528,117.201757 C147.631528,115.815621 147.631528,114.490638 147.631528,113.257384 L147.631528,113.135078 C147.631528,112.009281 148.544167,111.096642 149.669964,111.096642 C150.795761,111.096642 151.7084,112.009281 151.7084,113.135078 L151.7084,113.216615 C151.7084,114.511022 151.7084,115.836005 151.7084,117.222142 C151.697695,117.762804 151.472596,118.277056 151.082645,118.651715 C150.692695,119.026373 150.169853,119.230731 149.629196,119.219809 L149.669964,119.240194 Z M121.91666,113.440843 L121.712816,113.440843 C121.17489,113.386787 120.68047,113.121252 120.338327,112.702652 C119.996185,112.284053 119.834346,111.746681 119.888416,111.208756 C120.040969,109.635196 120.447108,108.096683 121.091093,106.652852 C121.55267,105.625562 122.759635,105.166961 123.786925,105.628538 C124.814215,106.090114 125.272815,107.29708 124.811239,108.32437 C124.346478,109.367709 124.053905,110.479483 123.944903,111.616443 C123.824153,112.661627 122.927781,113.443193 121.875891,113.420459 L121.91666,113.440843 Z M146.785578,105.552097 C146.154688,105.55058 145.560054,105.257027 145.175213,104.757107 C144.494184,103.873402 143.658483,103.120581 142.708706,102.535211 C141.748963,101.944168 141.450074,100.687008 142.041117,99.727266 C142.632161,98.7675244 143.889321,98.4686352 144.849063,99.0596784 C146.219146,99.9017536 147.424487,100.986215 148.406134,102.260023 C148.879396,102.874794 148.962643,103.704921 148.62088,104.401425 C148.279117,105.09793 147.571603,105.540043 146.79577,105.541904 L146.785578,105.552097 Z M130.060211,102.494443 C129.107646,102.489317 128.285642,101.825153 128.08055,100.894916 C127.875458,99.964677 128.34197,99.0164309 129.204068,98.6112224 C130.583848,97.9594182 132.038709,97.4801694 133.535744,97.1843177 C134.641839,96.9732303 135.709627,97.6987788 135.920714,98.8048742 C136.131801,99.9109695 135.406253,100.978757 134.300157,101.189844 C133.128207,101.412111 131.988229,101.77841 130.906162,102.280407 C130.642293,102.424038 130.349939,102.507568 130.050019,102.525019 L130.060211,102.494443 Z" id="Shape" fill="#DDDDE6" fill-rule="nonzero"></path>
                        <path d="M49.6439166,217.818951 C48.9156536,217.877212 48.211629,217.542524 47.7970419,216.94096 C47.3824549,216.339396 47.3202911,215.562349 47.6339671,214.902525 C47.947643,214.2427 48.5895039,213.80034 49.3177669,213.74208 C50.4712989,213.561554 51.5934118,213.2184 52.6506095,212.722862 C53.3133288,212.407888 54.0937432,212.470396 54.6978782,212.886841 C55.3020132,213.303286 55.6380862,214.0104 55.5795018,214.741818 C55.5209174,215.473237 55.0765759,216.117842 54.4138565,216.432815 C53.0017536,217.097701 51.5019632,217.557591 49.9598741,217.798567 L49.6439166,217.818951 Z M39.6657731,216.555121 C39.3849482,216.554148 39.1073535,216.495158 38.8503988,216.381854 C37.4135821,215.761284 36.0773088,214.929978 34.885641,213.915346 C34.2589102,213.462508 33.9423406,212.694057 34.0682411,211.931165 C34.1941415,211.168273 34.7408358,210.542288 35.4798355,210.314835 C36.2188352,210.087384 37.0229067,210.297626 37.555992,210.857693 C38.4385584,211.608021 39.4278347,212.222884 40.4913397,212.682093 C41.3737948,213.071194 41.8628057,214.02548 41.6632538,214.96904 C41.4637019,215.9126 40.6302026,216.587191 39.6657731,216.5857 L39.6657731,216.555121 Z M59.3570635,208.809065 L59.0716825,208.809065 C57.9572363,208.651296 57.1815773,207.620126 57.3390119,206.505632 C57.3995266,206.069831 57.433563,205.630762 57.4409338,205.190841 C57.4409338,204.579311 57.4409338,203.73336 57.4409338,202.673373 C57.4409338,201.547576 58.3535726,200.634937 59.4793696,200.634937 L59.4793696,200.634937 C60.6051666,200.634937 61.5178055,201.547576 61.5178055,202.673373 C61.5178055,203.692591 61.5178055,204.589503 61.5178055,205.211225 C61.506946,205.818289 61.4592951,206.424137 61.3751149,207.025434 C61.2516346,208.047034 60.3860958,208.816402 59.3570635,208.819257 L59.3570635,208.809065 Z M32.7962443,205.221418 C31.6704472,205.221418 30.7578084,204.308779 30.7578084,203.182982 C30.7578084,201.939536 30.7578084,200.563592 30.7578084,199.10611 C30.7578084,197.980314 31.6704472,197.067674 32.7962443,197.067674 L32.7962443,197.067674 C33.9220413,197.067674 34.8346801,197.980314 34.8346801,199.10611 C34.8346801,200.573784 34.8346801,201.949728 34.8346801,203.182982 C34.8346801,204.308779 33.9220413,205.221418 32.7962443,205.221418 Z M59.5812914,194.448284 L59.5812914,194.448284 C58.4554944,194.448284 57.5428556,193.535646 57.5428556,192.409849 L57.5428556,188.332976 C57.5428556,187.207179 58.4554944,186.294541 59.5812914,186.294541 L59.5812914,186.294541 C60.7070884,186.294541 61.6197272,187.207179 61.6197272,188.332976 L61.6197272,192.409849 C61.6279167,192.955753 61.4167744,193.482128 61.0336023,193.871047 C60.6504301,194.259967 60.1272579,194.47886 59.5812914,194.47886 L59.5812914,194.448284 Z M32.6331694,190.952367 C31.5073724,190.952367 30.5947336,190.039728 30.5947336,188.913931 L30.5947336,184.837059 C30.5947336,183.711262 31.5073724,182.798623 32.6331694,182.798623 L32.6331694,182.798623 C33.7589664,182.798623 34.6716053,183.711262 34.6716053,184.837059 L34.6716053,188.913931 C34.6716053,190.039728 33.7589664,190.952367 32.6331694,190.952367 Z M59.6118679,180.158849 L59.6118679,180.158849 C58.4860709,180.158849 57.5734321,179.24621 57.5734321,178.120413 L57.5734321,174.043542 C57.5734321,172.917744 58.4860709,172.005105 59.6118679,172.005105 L59.6118679,172.005105 C60.737665,172.005105 61.6503039,172.917744 61.6503039,174.043542 L61.6503039,178.120413 C61.6506495,179.226605 60.7686753,180.131194 59.6628289,180.158849 L59.6118679,180.158849 Z M32.6331694,176.683316 C31.5073724,176.683316 30.5947336,175.770677 30.5947336,174.64488 L30.5947336,170.568008 C30.5947336,169.442211 31.5073724,168.529572 32.6331694,168.529572 L32.6331694,168.529572 C33.7589664,168.529572 34.6716053,169.442211 34.6716053,170.568008 L34.6716053,174.64488 C34.6716053,175.770677 33.7589664,176.683316 32.6331694,176.683316 Z M59.7443662,165.879605 L59.7443662,165.879605 C58.6185692,165.879605 57.7059304,164.966967 57.7059304,163.84117 L57.7059304,159.764298 C57.7059304,158.638501 58.6185692,157.725862 59.7443662,157.725862 C60.8701633,157.725862 61.7828021,158.638501 61.7828021,159.764298 L61.7828021,163.84117 C61.7660476,164.958988 60.8521033,165.854745 59.7341741,165.849029 L59.7443662,165.879605 Z M32.6331694,162.353112 C31.5073724,162.353112 30.5947336,161.440473 30.5947336,160.314676 L30.5947336,156.237804 C30.5947336,155.112007 31.5073724,154.199368 32.6331694,154.199368 C33.7589664,154.199368 34.6716053,155.112007 34.6716053,156.237804 L34.6716053,160.314676 C34.6716053,161.440473 33.7589664,162.353112 32.6331694,162.353112 Z M59.8259037,151.549402 L59.8259037,151.549402 C58.7001067,151.549402 57.7874679,150.636763 57.7874679,149.510965 L57.7874679,145.434094 C57.7874679,144.308297 58.7001067,143.395658 59.8259037,143.395658 L59.8259037,143.395658 C60.9517007,143.395658 61.8643396,144.308297 61.8643396,145.434094 L61.8643396,149.510965 C61.864401,150.056932 61.6454456,150.580105 61.2565259,150.963277 C60.8676062,151.346449 60.3412322,151.557591 59.7953272,151.549402 L59.8259037,151.549402 Z M59.8870568,137.28035 L59.8870568,137.28035 C58.7612598,137.28035 57.8486209,136.367712 57.8486209,135.241915 L57.8486209,131.165043 C57.8486209,130.039246 58.7612598,129.126607 59.8870568,129.126607 L59.8870568,129.126607 C61.0128538,129.126607 61.9254926,130.039246 61.9254926,131.165043 L61.9254926,135.241915 C61.9087207,136.363738 60.988563,137.261119 59.8666724,137.249774 L59.8870568,137.28035 Z M59.9482099,123.0113 L59.9482099,123.0113 C58.8224128,123.0113 57.909774,122.098661 57.909774,120.972864 L57.909774,116.895992 C57.909774,115.770195 58.8224128,114.857557 59.9482099,114.857557 L59.9482099,114.857557 C61.0740069,114.857557 61.9866457,115.770195 61.9866457,116.895992 L61.9866457,120.972864 C61.9533491,122.086687 61.031821,122.967359 59.9176333,122.950147 L59.9482099,123.0113 Z M60.0093629,108.742249 L60.0093629,108.742249 C58.8835659,108.742249 57.9709271,107.82961 57.9709271,106.703813 L57.9709271,102.626941 C57.9709271,101.501144 58.8835659,100.588505 60.0093629,100.588505 L60.0093629,100.588505 C61.13516,100.588505 62.0477988,101.501144 62.0477988,102.626941 L62.0477988,106.703813 C61.9929884,107.801553 61.0777483,108.658181 59.9787864,108.640327 L60.0093629,108.742249 Z M60.070516,94.4018521 L60.070516,94.4018521 C58.944719,94.4018521 58.0320802,93.4892137 58.0320802,92.3634167 L58.0320802,88.286545 C58.0320802,87.1607481 58.944719,86.2481088 60.070516,86.2481088 L60.070516,86.2481088 C61.1963131,86.2481088 62.1089519,87.1607481 62.1089519,88.286545 L62.1089519,92.2716872 C62.1062922,92.8158839 61.8861392,93.336424 61.4975193,93.7173863 C61.1088994,94.0983486 60.5840819,94.3081006 60.0399395,94.2999306 L60.070516,94.4018521 Z M60.1316691,80.1328015 L60.1316691,80.1328015 C59.0058721,80.1328015 58.0932332,79.2201627 58.0932332,78.0943657 L58.0932332,74.017494 C58.0932332,72.891697 59.0058721,71.9790582 60.1316691,71.9790582 L60.1316691,71.9790582 C61.2574661,71.9790582 62.1701049,72.891697 62.1701049,74.017494 L62.1701049,78.0943657 C62.1266769,79.1803491 61.2388588,80.0412636 60.1520534,80.0512641 L60.1316691,80.1328015 Z M60.1928222,65.8637506 L60.1928222,65.8637506 C59.0670252,65.8637506 58.1543863,64.9511118 58.1543863,63.8253147 L58.1543863,59.748443 C58.1543863,58.6226459 59.0670252,57.7100071 60.1928222,57.7100071 L60.1928222,57.7100071 C61.3186192,57.7100071 62.231258,58.6226459 62.231258,59.748443 L62.231258,63.8253147 C62.171046,64.9230484 61.2511831,65.7752744 60.1520534,65.7516366 L60.1928222,65.8637506 Z M60.2539753,51.5946996 L60.2539753,51.5946996 C59.1281782,51.5946996 58.2155393,50.6820608 58.2155393,49.5562637 L58.2155393,45.479392 C58.2155393,44.353595 59.1281782,43.4409562 60.2539753,43.4409562 L60.2539753,43.4409562 C61.3797723,43.4409562 62.2924111,44.353595 62.2924111,45.479392 L62.2924111,49.5562637 C62.2117534,50.6298509 61.3101153,51.4556087 60.2335909,51.4418169 L60.2539753,51.5946996 Z M60.3253205,37.3256486 L60.3253205,37.3256486 C59.1995235,37.3256486 58.2868847,36.4130098 58.2868847,35.2872127 L58.2868847,31.2103411 C58.2868847,30.084544 59.1995235,29.1719052 60.3253205,29.1719052 L60.3253205,29.1719052 C61.4511175,29.1719052 62.3637563,30.084544 62.3637563,31.2103411 L62.3637563,35.2872127 C62.2626706,36.3486057 61.3607368,37.1527929 60.294744,37.1319972 L60.3253205,37.3256486 Z M60.3864736,22.7814089 L60.3864736,22.7814089 C59.2606765,22.7814089 58.3480377,21.86877 58.3480377,20.7429729 C58.3480377,18.8981885 58.3480377,17.5018599 58.3480377,16.6661013 C58.357141,15.9378382 58.7540765,15.2697521 59.3893224,14.9135042 C60.0245682,14.5572564 60.8016156,14.5669695 61.4277582,14.9389847 C62.0539008,15.3109998 62.4340127,15.9887992 62.4249094,16.7170621 C62.4249094,17.5935895 62.4249094,18.979726 62.4249094,20.7939339 C62.3972547,21.8997803 61.4926657,22.7817546 60.3864736,22.7814089 L60.3864736,22.7814089 Z M88.6901554,16.5845645 C87.595447,16.5854399 86.6955075,15.7214981 86.6517196,14.6276653 C86.622862,13.497913 86.402291,12.3812724 85.9994201,11.3253993 C85.5885041,10.2727791 86.1087083,9.08634864 87.1613285,8.67543268 C88.2139487,8.26451676 89.4003792,8.78472087 89.8112951,9.83734111 C90.3780126,11.323438 90.6881892,12.895 90.7285912,14.4849749 C90.7629407,15.607113 89.8834949,16.5457961 88.7615006,16.5845645 L88.6901554,16.5845645 Z M63.7906615,9.32773933 C62.9841704,9.32986298 62.2522514,8.85630352 61.9236806,8.11977554 C61.5951097,7.38324756 61.731673,6.52225136 62.2720267,5.92354428 C63.3260796,4.75338013 64.5573424,3.75598838 65.9208269,2.96781229 C66.8887791,2.4614613 68.083824,2.80815442 68.6305058,3.75391419 C69.1771878,4.69967396 68.8811506,5.9082642 67.9592628,6.49430631 C66.9655149,7.06760106 66.0678783,7.79327661 65.299104,8.64485614 C64.9155484,9.07564427 64.3674435,9.32377284 63.7906615,9.32773933 Z M80.7402556,5.80126692 C80.489577,5.80257052 80.2408029,5.75765296 80.0064186,5.66873979 C78.8944889,5.2457765 77.7335834,4.96496749 76.5512699,4.8329811 C75.8230069,4.74923087 75.1947444,4.28331877 74.9031426,3.6107494 C74.611541,2.93818001 74.7009014,2.16113265 75.1375628,1.57231352 C75.5742241,0.983494385 76.2918471,0.672359128 77.0201101,0.756109387 C78.544358,0.927147379 80.0408773,1.29014747 81.4740925,1.83648039 C82.396155,2.18617767 82.9356657,3.14578204 82.7552915,4.11529359 C82.5749173,5.08480513 81.726389,5.78616969 80.7402556,5.78085377 L80.7402556,5.80126692 Z" id="Shape" fill="#DDDDE6" fill-rule="nonzero"></path>
                        <path d="M301.35967,276.62 L280.428742,276.62 C280.910346,275.57936 281.160166,274.432675 281.158474,273.2705 L281.158474,170.8745 C281.158474,166.716624 278.021163,163.346 274.151093,163.346 L112.134309,163.346 C108.264239,163.346 105.126928,166.716624 105.126928,170.8745 L105.126928,273.274 C105.125237,274.436175 105.375057,275.58286 105.85666,276.6235 L84.1862268,276.6235 C83.6929104,276.623493 83.2199402,276.834752 82.8720312,277.210504 C82.5241222,277.586257 82.3299764,278.095504 82.3325515,278.6255 L82.3325515,280.232 C82.3325515,286.382795 86.9736398,291.369 92.6986804,291.369 L292.847216,291.369 C295.596478,291.369 298.233137,290.195641 300.177158,288.107048 C302.12118,286.018456 303.213365,283.185716 303.213365,280.232 L303.213365,278.6255 C303.216792,278.0949 303.023031,277.58475 302.675027,277.208238 C302.327023,276.831726 301.853555,276.619987 301.35967,276.62 Z M172.38932,282.99 L170.584536,280.8025 L215.143794,280.8025 L213.156577,282.9935 L172.38932,282.99 Z" id="Shape" fill="url(#linearGradient-1)" fill-rule="nonzero"></path>
                        <rect id="Rectangle" fill="#535461" fill-rule="nonzero" x="107.110887" y="164.795" width="172.04734" height="114.7965" rx="7"></rect>
                        <rect id="Rectangle" fill="#FFFFFF" fill-rule="nonzero" x="110.733485" y="181.5285" width="164.440536" height="93.7825"></rect>
                        <ellipse id="Oval" fill="#FFFFFF" fill-rule="nonzero" cx="192.955381" cy="173.356" rx="1.44969072" ry="1.5575"></ellipse>
                        <path d="M218.342887,275.5035 L212.693979,281.73 L172.864948,281.73 L167.760082,275.5035 L86.6458144,275.5035 C85.6454616,275.5035 84.8345155,276.374754 84.8345155,277.4495 L84.8345155,279.0175 C84.8345155,285.02912 89.3705633,289.9025 94.9660619,289.9025 L290.579835,289.9025 C293.266888,289.9025 295.843887,288.755691 297.74392,286.714357 C299.643954,284.673024 300.711381,281.904381 300.711381,279.0175 L300.711381,277.4495 C300.711381,276.374754 299.900435,275.5035 298.900082,275.5035 L218.342887,275.5035 Z" id="Path" fill="#535461" fill-rule="nonzero"></path>
                        <path d="M178.758444,43.2269204 L125.382001,43.2269204 C124.473203,43.1085224 123.793292,42.3342864 123.793292,41.4178086 C123.793292,40.5013307 124.473203,39.7270947 125.382001,39.6086967 L178.799212,39.6086967 C179.70801,39.7270947 180.387922,40.5013307 180.387922,41.4178086 C180.387922,42.3342864 179.70801,43.1085224 178.799212,43.2269204 L178.758444,43.2269204 Z" id="Shape" fill="#B1B2C0" fill-rule="nonzero"></path>
                        <path d="M178.758444,60.3599738 L125.382001,60.3599738 C124.473203,60.2415758 123.793292,59.4673398 123.793292,58.550862 C123.793292,57.6343841 124.473203,56.8601481 125.382001,56.7417501 L178.799212,56.7417501 C179.70801,56.8601481 180.387922,57.6343841 180.387922,58.550862 C180.387922,59.4673398 179.70801,60.2415758 178.799212,60.3599738 L178.758444,60.3599738 Z" id="Shape" fill="#B1B2C0" fill-rule="nonzero"></path>
                        <path d="M178.758444,77.2178383 L125.382001,77.2178383 C124.473203,77.0994403 123.793292,76.3252043 123.793292,75.4087265 C123.793292,74.4922486 124.473203,73.7180126 125.382001,73.5996146 L178.799212,73.5996146 C179.70801,73.7180126 180.387922,74.4922486 180.387922,75.4087265 C180.387922,76.3252043 179.70801,77.0994403 178.799212,77.2178383 L178.758444,77.2178383 Z" id="Shape" fill="#B1B2C0" fill-rule="nonzero"></path>
                        <path d="M109.953802,43.7112006 L117.924925,34.1259601 C118.325641,33.6570667 119.027178,33.5932906 119.505879,33.982237 L119.507555,33.9836108 C119.988859,34.3816473 120.058872,35.0934471 119.662181,35.5802484 L110.826356,46.1282023 C110.624596,46.3714958 110.32991,46.5188419 110.00309,46.5345803 C109.703816,46.5358827 109.416323,46.4180547 109.195727,46.1984125 L105.959766,42.6570045 C105.755071,42.4460938 105.641804,42.1629598 105.644518,41.8724162 C105.643254,41.573147 105.761086,41.2856688 105.976606,41.0689266 C106.423902,40.641329 107.128454,40.641329 107.588853,41.0824333 L109.953802,43.7112006 Z" id="Shape" stroke="#008140" stroke-width="0.5" fill="#008140" fill-rule="nonzero"></path>
                        <path d="M109.953802,60.5690651 L117.924925,50.9838246 C118.325641,50.5149312 119.027178,50.4511551 119.505879,50.8401015 L119.518622,50.8511899 C119.963293,51.2653587 120.003582,51.9560168 119.611829,52.4170002 L110.826356,62.9860668 C110.624596,63.2293603 110.32991,63.3767064 110.00309,63.3924448 C109.703816,63.3937472 109.416323,63.2759192 109.195727,63.056277 L105.959766,59.514869 C105.755071,59.3039583 105.641804,59.0208243 105.644518,58.7302807 C105.643254,58.4310115 105.761086,58.1435333 105.976606,57.9267911 C106.423902,57.4991935 107.128454,57.4991935 107.588853,57.9402978 L109.953802,60.5690651 Z" id="Shape" stroke="#008140" stroke-width="0.5" fill="#008140" fill-rule="nonzero"></path>
                        <path d="M109.953802,77.4371217 L117.924925,67.8518813 C118.325641,67.3829879 119.027178,67.3192118 119.505879,67.7081581 L119.518622,67.7192466 C119.963293,68.1334155 120.003582,68.8240736 119.611829,69.2850568 L110.826356,79.8541234 C110.624596,80.097417 110.32991,80.2447632 110.00309,80.2605014 C109.703816,80.2618039 109.416323,80.1439759 109.195727,79.9243337 L105.959766,76.3829257 C105.755071,76.1720149 105.641804,75.888881 105.644518,75.5983374 C105.643254,75.2990682 105.761086,75.01159 105.976606,74.7948478 C106.423902,74.3672501 107.128454,74.3672501 107.588853,74.8083544 L109.953802,77.4371217 Z" id="Shape" stroke="#008140" stroke-width="0.5" fill="#008140" fill-rule="nonzero"></path>
                        <path d="M250.211064,213.303816 L208.20467,213.303816 C207.433237,213.303816 206.807867,212.493849 206.807867,211.494704 C206.807867,210.495559 207.433237,209.685592 208.20467,209.685592 L250.211064,209.685592 C250.982497,209.685592 251.607867,210.495559 251.607867,211.494704 C251.607867,212.493849 250.982497,213.303816 250.211064,213.303816 L250.211064,213.303816 Z" id="Shape" fill="#B1B2C0" fill-rule="nonzero"></path>
                        <path d="M250.211064,225.605776 L208.20467,225.605776 C207.433237,225.605776 206.807867,224.795809 206.807867,223.796664 C206.807867,222.797519 207.433237,221.987552 208.20467,221.987552 L250.211064,221.987552 C250.982497,221.987552 251.607867,222.797519 251.607867,223.796664 C251.607867,224.795809 250.982497,225.605776 250.211064,225.605776 L250.211064,225.605776 Z" id="Shape" fill="#B1B2C0" fill-rule="nonzero"></path>
                        <path d="M250.211064,201.266852 L208.20467,201.266852 C207.433237,201.266852 206.807867,200.456885 206.807867,199.457741 C206.807867,198.458596 207.433237,197.648629 208.20467,197.648629 L250.211064,197.648629 C250.982497,197.648629 251.607867,198.458596 251.607867,199.457741 C251.607867,200.456885 250.982497,201.266852 250.211064,201.266852 Z" id="Shape" fill="#B1B2C0" fill-rule="nonzero"></path>
                        <path d="M233.759277,238.407153 L208.206456,238.407153 C207.434037,238.407153 206.807867,237.597186 206.807867,236.598042 C206.807867,235.598897 207.434037,234.78893 208.206456,234.78893 L233.759277,234.78893 C234.531697,234.78893 235.157867,235.598897 235.157867,236.598042 C235.157867,237.597186 234.531697,238.407153 233.759277,238.407153 L233.759277,238.407153 Z" id="Shape" fill="#B1B2C0" fill-rule="nonzero"></path>
                        <circle id="Oval" fill="#E3245A" fill-rule="nonzero" cx="194.077289" cy="133.030212" r="19.5689842"></circle>
                        <path d="M207.612503,127.872969 C204.126778,124.020326 190.642525,124.020326 176.016747,125.467615 C175.667723,126.275433 175.374851,127.106369 175.14022,127.954507 C183.457039,127.954507 190.428489,128.973724 193.251722,131.705229 C195.290159,133.743664 194.811126,136.363054 192.436349,139.451285 C192.436349,139.451285 190.265414,142.508938 182.183016,148.624246 C182.783401,149.074878 183.409586,149.490066 184.058377,149.867692 C186.861226,148.236944 191.009443,145.79082 195.045546,143.212199 C204.320429,137.025546 210.568235,131.134466 207.612503,127.872969 Z" id="Shape" fill="#FFFFFF" fill-rule="nonzero"></path>
                        <path d="M122.028774,141.907601 C120.950934,141.779789 120.162275,140.829814 120.23495,139.746858 C120.336872,138.228224 120.387833,136.954201 120.438794,135.741331 C120.467924,135.013069 120.883365,134.355667 121.528625,134.016763 C122.173885,133.67786 122.950932,133.708941 123.567061,134.098301 C124.18319,134.48766 124.544796,135.176143 124.515666,135.904406 C124.515666,137.158045 124.413744,138.472836 124.30163,140.032239 C124.2254,141.155104 123.253593,142.003723 122.130696,141.927985 L122.028774,141.907601 Z" id="Shape" fill="#DDDDE6" fill-rule="nonzero"></path>
                        <path d="M275.15,275.072042 C275.15,275.304068 274.962729,275.493894 274.72762,275.5 L111.07238,275.5 C110.841635,275.494085 110.655997,275.310943 110.65,275.083303 L110.65,181.416697 C110.65619,181.184751 110.848606,181 111.083796,181 L274.693373,181 C274.932952,181 275.127169,181.191603 275.127169,181.427959 L275.15,275.072042 Z" id="Shape-path" fill="#6280DA"></path>
                        <path d="M257.057446,205.762436 L208.895916,205.762436 C208.08448,205.762436 207.426681,205.104637 207.426681,204.2932 C207.426681,203.481764 208.08448,202.823966 208.895916,202.823966 L257.057446,202.823966 C257.868882,202.823966 258.526681,203.481764 258.526681,204.2932 C258.526681,205.104637 257.868882,205.762436 257.057446,205.762436 L257.057446,205.762436 Z" id="Shape" fill="#FFFFFF" fill-rule="nonzero"></path>
                        <path d="M257.057446,216.752315 L208.895916,216.752315 C208.08448,216.752315 207.426681,216.094516 207.426681,215.28308 C207.426681,214.471643 208.08448,213.813845 208.895916,213.813845 L257.057446,213.813845 C257.868882,213.813845 258.526681,214.471643 258.526681,215.28308 C258.526681,216.094516 257.868882,216.752315 257.057446,216.752315 L257.057446,216.752315 Z" id="Shape" fill="#FFFFFF" fill-rule="nonzero"></path>
                        <path d="M237.4602,238.516585 L208.893162,238.516585 C208.083246,238.516585 207.426681,237.858787 207.426681,237.04735 C207.426681,236.235914 208.083246,235.578116 208.893162,235.578116 L237.4602,235.578116 C238.270116,235.578116 238.926681,236.235914 238.926681,237.04735 C238.926681,237.858787 238.270116,238.516585 237.4602,238.516585 L237.4602,238.516585 Z" id="Shape" fill="#FFFFFF" fill-rule="nonzero"></path>
                        <path d="M257.057446,227.526707 L208.895916,227.526707 C208.08448,227.526707 207.426681,226.868907 207.426681,226.057471 C207.426681,225.246035 208.08448,224.588236 208.895916,224.588236 L257.057446,224.588236 C257.868882,224.588236 258.526681,225.246035 258.526681,226.057471 C258.526681,226.868907 257.868882,227.526707 257.057446,227.526707 L257.057446,227.526707 Z" id="Shape" fill="#FFFFFF" fill-rule="nonzero"></path>
                        <g id="head" transform="translate(125.700000, 192.900000)" fill-rule="nonzero">
                            <path d="M3.83693077e-13,35.6992667 C0.00204098179,18.6810194 12.0164158,4.03022795 28.7047618,0.695583336 C45.3931078,-2.63906128 62.1151157,6.26966178 68.6569972,21.9803121 C75.1988787,37.6909624 69.7416189,55.8350856 55.6185072,65.3302667 L55.5975072,65.4877667 C54.4312473,66.6057022 53.0548662,67.4812566 51.5480072,68.0637667 L51.5025072,67.9062667 C49.8330072,69.3412667 42.7945072,71.6372667 34.7025072,71.6164098 L34.5275072,71.6164098 C29.4035072,71.6164098 23.8455072,70.7132667 18.9560072,68.0672667 C18.9560072,68.0672667 18.9140072,67.9727667 18.8475072,67.7977667 C17.6083356,67.215186 16.4713684,66.436328 15.4805072,65.4912667 C15.4618405,65.3559334 15.4431739,65.2206001 15.4245072,65.0852667 C5.76057973,58.4249644 -0.00744511205,47.4360067 3.83693077e-13,35.6992667 Z" id="Path" fill-opacity="0.1" fill="#000000"></path>
                            <circle id="Oval" fill="#F7F8F9" cx="35.7000072" cy="35.7027667" r="34.629"></circle>
                            <path d="M22.1200072,48.8907667 C22.1200072,48.8907667 13.8705072,49.5662667 16.0510072,64.5987667 C17.1819973,65.6830984 18.5167227,66.5324691 19.9780072,67.0977667 L24.6190072,51.3897667 L22.1200072,48.8907667 Z" id="Path" fill="#BE7C5E"></path>
                            <path d="M48.8950072,48.8907667 C48.8950072,48.8907667 57.1445072,49.5662667 54.9640072,64.5987667 C53.8330171,65.6830984 52.4982917,66.5324691 51.0370072,67.0977667 L46.3960072,51.3897667 L48.8950072,48.8907667 Z" id="Path" fill="#BE7C5E"></path>
                            <path d="M22.4770072,24.2577667 C22.4770072,24.2577667 21.8435072,26.1057667 20.9440072,28.2442667 C18.9805072,32.9237667 21.2205072,50.8927667 25.9210072,52.8072667 C31.1920072,54.9562667 38.1290072,56.3317667 45.3320072,53.7067667 C51.5935072,51.4247667 53.5220072,30.9567667 49.0980072,25.9902667 C48.5800072,25.4057667 48.0480072,24.8247667 47.4705072,24.2612667 L22.4770072,24.2577667 Z" id="Path" fill="#333333"></path>
                            <circle id="Oval" fill="#333333" cx="35.7280072" cy="23.1867667" r="15.351"></circle>
                            <path d="M49.0945072,48.8907667 L22.3195072,48.8907667 L19.8205072,59.6007667 C19.8205072,59.6007667 18.3540072,64.5602667 20.1705072,66.7407667 C21.9870072,68.9212667 39.0530072,73.8807667 51.5865072,67.0907667 C52.6768137,64.2342491 52.7997687,61.0988949 51.9365072,58.1657667 C50.5085072,53.1677667 51.5865072,57.8157667 51.5865072,57.8157667 L49.0945072,48.8907667 Z" id="Path" fill="#000000" opacity="0.1"></path>
                            <path d="M48.8950072,48.8907667 L22.1200072,48.8907667 L19.6210072,59.6007667 C19.6210072,59.6007667 18.1545072,64.5602667 19.9710072,66.7407667 C21.7875072,68.9212667 38.8535072,73.8807667 51.3870072,67.0907667 C52.4773137,64.2342491 52.6002687,61.0988949 51.7370072,58.1657667 C50.3090072,53.1677667 51.3870072,57.8157667 51.3870072,57.8157667 L48.8950072,48.8907667 Z" id="Path" fill="#F55F44"></path>
                            <path d="M30.3170072,40.0077667 L41.0270072,40.0077667 L41.0270072,48.5652667 C41.0270072,49.9855011 40.4628213,51.3475663 39.458564,52.3518236 C38.4543067,53.3560809 37.0922415,53.9202667 35.6720072,53.9202667 L35.6720072,53.9202667 C32.7145224,53.9202667 30.3170072,51.5227516 30.3170072,48.5652667 L30.3170072,40.0077667 L30.3170072,40.0077667 Z" id="Path" fill="#000000" opacity="0.1"></path>
                            <path d="M30.3170072,39.6087667 L41.0270072,39.6087667 L41.0270072,48.1767667 C41.0270072,49.5970011 40.4628213,50.9590663 39.458564,51.9633236 C38.4543067,52.9675809 37.0922415,53.5317667 35.6720072,53.5317667 L35.6720072,53.5317667 C32.7145224,53.5317667 30.3170072,51.1342516 30.3170072,48.1767667 L30.3170072,39.6087667 L30.3170072,39.6087667 Z" id="Path" fill="#BE7C5E"></path>
                            <path d="M30.3520072,41.1557667 C33.8036772,42.4461719 37.6036373,42.4561065 41.0620072,41.1837667 L41.0620072,39.8677667 L30.3520072,39.8677667 L30.3520072,41.1557667 Z" id="Path" fill="#000000" opacity="0.1"></path>
                            <circle id="Oval" fill="#BE7C5E" cx="35.7280072" cy="26.5187667" r="15.351"></circle>
                            <path d="M21.0490072,20.6877667 L50.3230072,20.6877667 C50.3230072,20.6877667 47.8240072,8.86826675 36.7570072,9.62076675 C25.6900072,10.3732667 21.0490072,20.6877667 21.0490072,20.6877667 Z" id="Path" fill="#333333"></path>
                            <ellipse id="Oval" fill="#BE7C5E" cx="20.6920072" cy="25.8642667" rx="1.428" ry="2.6775"></ellipse>
                            <ellipse id="Oval" fill="#BE7C5E" cx="50.6800072" cy="25.8642667" rx="1.428" ry="2.6775"></ellipse>
                            <path d="M21.0490072,21.0867667 L50.3230072,21.0867667 C50.3230072,21.0867667 47.8240072,9.26726675 36.7570072,10.0197667 C25.6900072,10.7722667 21.0490072,21.0867667 21.0490072,21.0867667 Z" id="Path" fill="#000000" opacity="0.1"></path>
                        </g>
                    </g>
                </g>
            </g>
        </g>
    </g>
</svg>