<?xml version="1.0" encoding="UTF-8"?>
<svg width="20px" height="14px" viewBox="0 0 20 14" version="1.1" xmlns="http://www.w3.org/2000/svg" xmlns:xlink="http://www.w3.org/1999/xlink">
    <!-- Generator: sketchtool 53.2 (72643) - https://sketchapp.com -->
    <title>F02759C6-EA7F-477A-B034-75320CDCF536</title>
    <desc>Created with sketchtool.</desc>
    <g id="Symbols" stroke="none" stroke-width="1" fill="none" fill-rule="evenodd">
        <g id="DX-External-mobile-header" transform="translate(-280.000000, -15.000000)" fill="#14255B">
            <g transform="translate(0.000000, -0.500000)" id="hamburger-menu">
                <g transform="translate(280.000000, 15.500000)">
                    <g id="Rectangle-2">
                        <rect x="0" y="0" width="20" height="1.5" rx="0.75"></rect>
                        <rect x="0" y="6" width="20" height="1.5" rx="0.75"></rect>
                        <rect x="0" y="12" width="20" height="1.5" rx="0.75"></rect>
                    </g>
                </g>
            </g>
        </g>
    </g>
</svg>