<?xml version="1.0" encoding="UTF-8"?>
<svg width="160px" height="29px" viewBox="0 0 160 29" version="1.1" xmlns="http://www.w3.org/2000/svg" xmlns:xlink="http://www.w3.org/1999/xlink">
    <!-- Generator: sketchtool 53.2 (72643) - https://sketchapp.com -->
    <title>ED750937-8780-4823-86F2-F5733F909F1D</title>
    <desc>Created with sketchtool.</desc>
    <defs>
        <polygon id="path-1" points="10.6416005 26.4991335 0 26.4991335 0 13.2495667 0 0 10.6416005 0 10.6416005 26.4991335"></polygon>
    </defs>
    <g id="Symbols" stroke="none" stroke-width="1" fill="none" fill-rule="evenodd">
        <g id="DX-Header-main" transform="translate(-160.000000, -18.000000)">
            <g id="DX-External-mobile-header">
                <g id="DXlogo" transform="translate(160.000000, 18.410305)">
                    <g id="Group-3" transform="translate(0.000000, 1.112318)">
                        <mask id="mask-2" fill="white">
                            <use xlink:href="#path-1"></use>
                        </mask>
                        <g id="Clip-2"></g>
                        <polyline id="Fill-1" fill="#1B4366" mask="url(#mask-2)" points="10.6416005 26.5102567 0 26.5102567 0 0 10.6416005 0 10.6416005 2.96618256 2.79123947 2.96618256 2.79123947 23.3586877 10.6416005 23.3586877 10.6416005 26.5102567"></polyline>
                    </g>
                    <path d="M29.3839013,9.85532696 L22.7466827,2.76299906 C21.6662986,1.6084125 20.1974088,0.959374673 18.6651928,0.959374673 L13.6709676,0.959374673 L13.6709676,4.17082346 L17.3738956,4.17082346 C18.895819,4.17082346 20.3558117,4.81133351 21.4346257,5.95220147 L27.2602914,12.114075 L29.3839013,9.85532696" id="Fill-4" fill="#1B4366"></path>
                    <path d="M45.4206187,4.17082346 L49.0251556,4.17082346 L49.0251556,0.959374673 L44.2001493,0.959374673 C42.676307,0.959374673 41.2145698,1.6015532 40.1355813,2.74501658 L21.4306133,22.5678293 C20.3512759,23.7133319 18.888143,24.3568081 17.3627307,24.3568081 L13.6709676,24.3568081 L13.6709676,27.5682569 L18.667984,27.5662177 C20.1984555,27.5658469 21.6657752,26.9175506 22.745636,25.7648179 L31.4174937,16.5082891 L40.0930149,25.7688964 C41.1735734,26.9223707 42.6422888,27.5706669 44.1739814,27.5702962 L49.0251556,27.5682569 L49.0251556,24.3568081 L45.4258523,24.3568081 C43.903929,24.3568081 42.4439363,23.7162981 41.3652967,22.5754301 L33.5041196,14.261035 L41.3598887,5.95220147 C42.4387027,4.81133351 43.8986954,4.17082346 45.4206187,4.17082346" id="Fill-5" fill="#1B4366"></path>
                    <path d="M58.4023246,22.1812986 C59.9894932,22.1812986 60.7958125,21.4764595 60.7958125,19.9557347 C60.7958125,18.4212914 60.0543895,17.7023629 58.4023246,17.7023629 L57.7128885,17.7023629 L57.7128885,22.1812986 L58.4023246,22.1812986 L58.4023246,22.1812986 Z M58.4023246,15.7255876 C61.2902108,15.7255876 62.9424501,17.4122332 62.9424501,19.9557347 C62.9424501,22.4855177 61.2253144,24.1580739 58.4023246,24.1580739 L55.5925932,24.1580739 L55.5925932,15.7255876 L58.4023246,15.7255876 L58.4023246,15.7255876 Z" id="Fill-6" fill="#1B4366"></path>
                    <polyline id="Fill-7" fill="#1B4366" points="65.1789307 24.1580739 65.1789307 15.7255876 71.0326832 15.7255876 71.0326832 17.7715121 67.299226 17.7715121 67.299226 19.0432628 70.4862981 19.0432628 70.4862981 20.978697 67.299226 20.978697 67.299226 22.1538614 71.1366569 22.1538614 71.1366569 24.1580739 65.1789307 24.1580739"></polyline>
                    <path d="M76.131231,24.1580739 L73.1002939,15.7255876 L75.4548788,15.7255876 L77.0678663,21.0200381 C77.1589305,21.3105386 77.2369108,21.6006684 77.3150655,21.8911689 C77.3799618,21.6006684 77.4581165,21.3105386 77.5491807,21.0200381 L79.2663163,15.7255876 L81.5167531,15.7255876 L78.485816,24.1580739 L76.131231,24.1580739" id="Fill-8" fill="#1B4366"></path>
                    <polyline id="Fill-9" fill="#1B4366" points="83.8053951 24.1580739 83.8053951 15.7255876 89.1647493 15.7255876 89.1647493 16.9144707 85.0019645 16.9144707 85.0019645 19.3337633 88.6314481 19.3337633 88.6314481 20.522461 85.0019645 20.522461 85.0019645 22.9693762 89.2818069 22.9693762 89.2818069 24.1580739 83.8053951 24.1580739"></polyline>
                    <path d="M97.5416078,24.1580739 L95.5252862,20.9510744 C95.447306,20.8266801 95.3691513,20.7160044 95.3173389,20.6053287 C95.2522681,20.7160044 95.1741134,20.8266801 95.0961332,20.9510744 L93.0798116,24.1580739 L91.6358685,24.1580739 L94.3676197,19.858963 L91.7138487,15.7255876 L93.1837852,15.7255876 L95.0961332,18.7116065 C95.1741134,18.8222822 95.2522681,18.9603951 95.3173389,19.0710708 C95.3691513,18.9464911 95.447306,18.8360008 95.5252862,18.7116065 L97.4376342,15.7255876 L98.8944867,15.7255876 L96.2278063,19.858963 L98.9857254,24.1580739 L97.5416078,24.1580739" id="Fill-10" fill="#1B4366"></path>
                    <path d="M108.012768,23.259506 C107.12812,23.9369079 106.048433,24.2826536 104.747541,24.2826536 C102.40604,24.2826536 101.014259,22.7205877 101.014259,19.9557347 C101.014259,17.1495407 102.40604,15.5874748 104.877683,15.5874748 C105.840312,15.5874748 106.933082,15.8501673 107.700498,16.3201219 L107.323332,17.2876535 C106.555741,16.9420933 105.684177,16.7761724 104.91676,16.7761724 C103.160547,16.7761724 102.236996,17.8682838 102.236996,19.9557347 C102.236996,21.93251 103.186541,23.0935851 104.799528,23.0935851 C105.892299,23.0935851 106.724786,22.8308926 107.557447,22.2780703 L108.012768,23.259506" id="Fill-11" fill="#1B4366"></path>
                    <polyline id="Fill-12" fill="#1B4366" points="116.376194 24.1580739 116.376194 20.4533119 112.070533 20.4533119 112.070533 24.1580739 110.873789 24.1580739 110.873789 15.7255876 112.070533 15.7255876 112.070533 19.2644288 116.376194 19.2644288 116.376194 15.7255876 117.573112 15.7255876 117.573112 24.1580739 116.376194 24.1580739"></polyline>
                    <path d="M124.414615,17.6332138 C124.271564,17.2185044 124.1805,16.8868481 124.115429,16.6241556 C124.050532,16.8868481 123.959468,17.2185044 123.816243,17.6332138 L122.515525,20.9926009 L125.715681,20.9926009 L124.414615,17.6332138 L124.414615,17.6332138 Z M121.305697,24.1580739 L120.017889,24.1580739 L123.322019,15.7255876 L124.922097,15.7255876 L128.226052,24.1580739 L126.938419,24.1580739 L126.170828,22.1673946 L122.073114,22.1673946 L121.305697,24.1580739 L121.305697,24.1580739 Z" id="Fill-13" fill="#1B4366"></path>
                    <polyline id="Fill-14" fill="#1B4366" points="136.368447 24.1580739 131.867399 17.8959063 131.867399 24.1580739 130.670829 24.1580739 130.670829 15.7255876 131.763425 15.7255876 136.264299 22.0153778 136.264299 15.7255876 137.461217 15.7255876 137.461217 24.1580739 136.368447 24.1580739"></polyline>
                    <path d="M147.67192,23.1352971 C146.461918,23.9369079 145.330419,24.2826536 143.977366,24.2826536 C141.726929,24.2826536 140.335147,22.7205877 140.335147,19.9557347 C140.335147,17.2463124 141.765832,15.5874748 144.146584,15.5874748 C145.187019,15.5874748 146.357944,15.8084554 147.294405,16.2094462 L146.956316,17.2602163 C146.084751,16.9420933 145.1612,16.7761724 144.250558,16.7761724 C142.533597,16.7761724 141.557884,17.9237143 141.557884,19.9418308 C141.557884,22.0014738 142.481436,23.0935851 144.029352,23.0935851 C144.979072,23.0935851 145.785565,22.9554722 146.526988,22.4439911 L146.526988,20.9371704 L143.860308,20.9371704 L143.860308,19.7759099 L147.67192,19.7759099 L147.67192,23.1352971" id="Fill-15" fill="#1B4366"></path>
                    <g id="Group-19" transform="translate(64.198508, 0.000000)">
                        <polyline id="Fill-16" fill="#1B4366" points="86.7505016 24.1580739 86.7505016 15.7255876 92.1100303 15.7255876 92.1100303 16.9144707 87.9472455 16.9144707 87.9472455 19.3337633 91.5767291 19.3337633 91.5767291 20.522461 87.9472455 20.522461 87.9472455 22.9693762 92.2270879 22.9693762 92.2270879 24.1580739 86.7505016 24.1580739"></polyline>
                        <path d="M22.4638953,1.30196876 C20.2874263,-1.24894825 6.2829056,1.04576474 0.327272828,2.4281912 L0.188583117,2.46026305 C0.159972912,2.46545387 0.140957593,2.49455954 0.14566781,2.52496291 C0.150726931,2.55555167 0.177941516,2.57575878 0.206726173,2.57056796 L0.34436917,2.54201846 C5.27858275,1.6084125 15.5395279,0.314044579 17.7475728,2.64064403 C18.4211338,3.35048859 18.2604631,4.26499975 17.4796138,5.34357789 C17.9009165,5.63111221 18.2006259,6.08326967 18.3354776,6.64906899 C21.3849068,4.49339581 23.4336765,2.43857284 22.4638953,1.30196876 L22.4638953,1.30196876 Z M13.4012641,9.09820886 C13.4000429,9.09950656 13.3984728,9.10061888 13.3969027,9.10154581 C12.0162859,10.1402659 10.3806196,11.2314503 8.62109201,12.3765821 L8.55183438,12.4195918 C8.5282833,12.4375743 8.52200301,12.4718707 8.53909935,12.4974541 C8.55549788,12.5226666 8.5881205,12.528599 8.61184603,12.5108019 L8.67063651,12.4781739 C10.1629029,11.6504236 11.8768984,10.6678756 13.6017099,9.65992968 C13.6109559,9.65436809 13.6200275,9.64899188 13.6294479,9.64361567 C13.5345457,9.47843638 13.4567399,9.29731386 13.4012641,9.09820886 L13.4012641,9.09820886 Z" id="Fill-18" fill="#BE322C"></path>
                    </g>
                    <path d="M77.7668974,8.38057806 C77.7168295,6.84854477 78.8460603,5.28221499 80.4866113,5.28221499 C81.5839173,5.28221499 82.3021381,6.05916943 82.3420878,7.24897941 C82.394598,8.86443659 81.3395094,10.3475279 79.6223738,10.3475279 C78.5248933,10.3475279 77.806847,9.57224191 77.7668974,8.38057806 L77.7668974,8.38057806 Z M78.480408,8.42840776 C78.5088437,9.32641953 79.0428427,10.0612913 79.7399548,10.0612913 C81.0909147,10.0612913 81.6657355,8.29882265 81.6257859,7.12106279 C81.5973502,6.22101177 81.0490461,5.48780852 80.3529807,5.48780852 C79.1909529,5.48780852 78.4408072,7.24267628 78.480408,8.42840776 L78.480408,8.42840776 Z" id="Fill-20" fill="#1B4366"></path>
                    <path d="M63.6531694,7.03337502 C63.647238,7.17426869 63.6243848,7.29736527 63.5889709,7.5124135 L63.3475287,8.95156821 C63.3267689,9.07929944 63.3714287,9.17977888 63.4832527,9.24818646 L63.4757513,9.30454393 L62.0940877,9.30250468 L62.0818761,8.93655191 C61.8807324,9.06539546 61.6377201,9.17421728 61.4182589,9.2381756 C61.199321,9.29768463 61.0222518,9.32419489 60.7563862,9.32419489 C60.3099624,9.32419489 60.054215,9.2748821 59.878018,9.11062975 C59.6986809,8.94100118 59.611978,8.82865702 59.6205262,8.59544091 C59.6273298,8.46122115 59.692924,8.28881179 59.7876517,8.16831062 C59.8832516,8.0457702 60.0133932,7.96586866 60.155223,7.89542183 C60.2977507,7.82312113 60.465574,7.77102754 60.709633,7.73005715 C60.9540409,7.68797443 61.2942232,7.64589172 61.749893,7.60547748 C61.9892418,7.58434343 62.1350841,7.52520516 62.2038183,7.49628488 C62.2990694,7.45716835 62.3364022,7.41360255 62.3503584,7.33110559 C62.3760029,7.18316724 62.3315175,7.09900181 62.1465979,7.05988527 C61.648885,6.9558835 60.7160877,7.12699516 60.2354711,7.25491178 L60.4968009,6.50576529 C61.1307612,6.4075105 61.7252952,6.3446645 62.3505329,6.3446645 C63.3449119,6.3446645 63.6631132,6.64610281 63.6531694,7.03337502 L63.6531694,7.03337502 Z M62.227195,7.97569414 C62.1684045,7.99905283 62.0926921,8.02241152 61.9990111,8.04336018 C61.9053302,8.06579194 61.7341923,8.09804917 61.485772,8.13976111 C61.3146341,8.16831062 61.1960064,8.20650022 61.1283189,8.25803764 C61.0634226,8.30901891 61.0253919,8.36964026 61.0144014,8.44360944 C61.0009686,8.52276944 61.0253919,8.5859862 61.0899393,8.63529899 C61.155359,8.68368484 61.2654385,8.70908278 61.4205268,8.70908278 C61.5368866,8.70908278 61.650804,8.68887566 61.7612324,8.65161299 C61.8730565,8.61268185 61.9667374,8.55984672 62.0396586,8.49440532 C62.0926921,8.44564869 62.1308972,8.38354424 62.1591585,8.30901891 C62.1757315,8.26007689 62.1992826,8.14958659 62.227195,7.97569414 L62.227195,7.97569414 Z" id="Fill-21" fill="#1B4366"></path>
                    <path d="M68.2102168,5.76329272 C68.2498175,5.52692505 68.6008158,5.33505011 68.992985,5.33505011 C69.3858519,5.33505011 69.6726518,5.52692505 69.6346212,5.76329272 C69.5932759,5.99984578 69.2429754,6.19134994 68.8495851,6.19134994 C68.4554969,6.19134994 68.1702672,5.99984578 68.2102168,5.76329272 L68.2102168,5.76329272 Z M67.6573769,9.30454393 L68.1369467,6.42920071 L69.4596453,6.42920071 L68.98025,9.30454393 L67.6573769,9.30454393 L67.6573769,9.30454393 Z" id="Fill-22" fill="#1B4366"></path>
                    <path d="M75.5827525,7.03875122 C75.57717,7.18001567 75.5536189,7.30440995 75.5173328,7.51760432 L75.2778096,8.9584275 C75.2570497,9.08541719 75.3013606,9.18534047 75.4124869,9.25615808 L75.4042876,9.30584164 L74.0233219,9.30862243 L74.0126803,8.94192811 C73.8106643,9.07188399 73.5667798,9.18014965 73.3487142,9.24318103 C73.1287296,9.30454393 72.9514859,9.32975648 72.6842247,9.32975648 C72.2384987,9.32975648 71.9846703,9.28192679 71.8077755,9.11656211 C71.6277406,8.94656277 71.5406888,8.83477477 71.5504582,8.60211482 C71.5553428,8.46696813 71.6218092,8.29381722 71.7168858,8.17479915 C71.8124858,8.05096102 71.9429762,7.97235719 72.0855039,7.90153958 C72.2280315,7.8303512 72.3965526,7.77770146 72.6376459,7.73487719 C72.883275,7.69427757 73.224504,7.65034099 73.679825,7.60992675 C73.9170803,7.5887927 74.0632715,7.5315083 74.1311335,7.50370034 C74.2277802,7.46421304 74.2656364,7.41990568 74.2799415,7.33703796 C74.3043648,7.19206579 74.2607517,7.10549033 74.0772277,7.06600303 C73.5770725,6.96088893 72.6467175,7.13329829 72.1659265,7.26028798 L72.4260351,6.51151227 C73.0624377,6.4128867 73.6536571,6.34948455 74.2802904,6.34948455 C75.2737972,6.34948455 75.5907773,6.65259133 75.5827525,7.03875122 L75.5827525,7.03875122 Z M74.1571269,7.98273883 C74.0978131,8.00424365 74.021054,8.02741695 73.9275475,8.05021948 C73.8349132,8.07357817 73.6634264,8.10286922 73.4136105,8.14606425 C73.2436938,8.17479915 73.1229727,8.21298875 73.0577275,8.26452617 C72.9942268,8.31402434 72.9561961,8.37538724 72.9429377,8.44954181 C72.9289815,8.52907258 72.9561961,8.59321627 73.0184757,8.64086058 C73.085291,8.68980259 73.1958938,8.71334667 73.351331,8.71334667 C73.4664696,8.71334667 73.5793403,8.6951788 73.6904666,8.65791613 C73.8031629,8.61787267 73.8970183,8.56670602 73.9701139,8.50070846 C74.021054,8.45213722 74.0601313,8.38854968 74.0876948,8.31402434 C74.1047912,8.26600926 74.1276444,8.15514819 74.1571269,7.98273883 L74.1571269,7.98273883 Z" id="Fill-23" fill="#1B4366"></path>
                    <path d="M59.4397934,8.27101469 C59.0092448,8.36166865 58.7669303,8.39652129 58.3412663,8.39652129 C57.7093994,8.39652129 57.2074997,8.06319653 57.2345398,7.45216292 C57.253904,7.04523975 57.7078294,6.18615912 58.8607857,6.18615912 C59.2234724,6.18615912 59.5073066,6.25419594 59.8890085,6.48537279 L60.0564829,5.48651081 C59.5376613,5.27813649 59.1938155,5.24699157 58.7486128,5.25218239 C57.2378544,5.26942332 55.7858865,5.99984578 55.606026,7.48404938 C55.4228509,8.99272399 57.156734,9.37220997 57.9265927,9.36850224 C58.3710976,9.36720454 58.8330478,9.34792435 59.2642943,9.30046543 L59.4397934,8.27101469" id="Fill-24" fill="#1B4366"></path>
                    <path d="M70.1885077,6.41270132 L70.2835843,5.82725103 L71.6669924,5.5070887 L71.519929,6.41270132 L72.1973279,6.41270132 L72.068582,6.99166308 L71.4114195,6.9899946 L71.0120978,9.30250468 C71.0120978,9.30250468 69.6801533,9.29304997 69.675443,9.30250468 L70.0730202,6.99555619 L69.5700738,6.99555619 L69.6723029,6.41270132 L70.1885077,6.41270132" id="Fill-25" fill="#1B4366"></path>
                    <polyline id="Fill-26" fill="#1B4366" points="76.9255131 9.30250468 75.5782167 9.30454393 76.2559645 5.29278201 77.5680216 5.33208393 76.9255131 9.30250468"></polyline>
                    <path d="M63.4994768,10.2972882 L64.1432064,6.44329007 L65.3048854,6.44329007 L65.2150424,6.93530561 C65.3158759,6.78829418 65.4768955,6.6679784 65.6989735,6.56953822 C65.9231449,6.47202497 66.1754032,6.39972427 66.4492936,6.39972427 C66.752492,6.39972427 66.939505,6.41715059 67.1662932,6.54210103 C67.3918602,6.6679784 67.5492164,6.85021324 67.635047,7.08787862 C67.7220988,7.32165089 67.7402418,7.58452882 67.6929652,7.87076543 C67.6144616,8.34554003 67.396396,8.72020597 67.0392918,8.99550478 C66.6844555,9.27043283 66.3657308,9.34273353 65.910061,9.34458739 C65.7486925,9.34458739 65.6136663,9.32660491 65.5016678,9.29768463 C65.3921116,9.26709588 65.3048854,9.23020398 65.2382445,9.18534047 C65.1747438,9.13973541 65.1070563,9.0770748 65.0205279,8.97640998 L64.8040324,10.2972882 L63.4994768,10.2972882 L63.4994768,10.2972882 Z M65.9079676,7.10308031 C65.7347363,7.10308031 65.577729,7.15851085 65.4383415,7.27048424 C65.3001752,7.38264302 65.2122511,7.54541228 65.1766628,7.76268516 C65.1351431,8.01369836 65.159392,8.19370856 65.2528986,8.30549657 C65.3474518,8.41580148 65.4833503,8.47123202 65.6618151,8.47123202 C65.7821873,8.47123202 65.9067464,8.44842949 65.9985084,8.40041441 C66.111728,8.33664148 66.1898828,8.26934622 66.2573959,8.16386135 C66.3304914,8.05207334 66.3782914,7.92823522 66.4027148,7.78437537 C66.4407454,7.55727701 66.4086461,7.38709229 66.3097316,7.27493351 C66.2132594,7.15980855 66.0805011,7.10308031 65.9079676,7.10308031 L65.9079676,7.10308031 Z" id="Fill-27" fill="#1B4366"></path>
                    <path d="M87.6288698,9.22612548 L87.7338902,9.30157775 C87.4692458,9.87405098 86.9296643,10.3349216 86.2969252,10.3349216 C85.7793247,10.3349216 85.3548819,9.96878344 85.3325519,9.28118524 C85.2906834,8.04873639 86.3771733,6.90378992 87.2668809,6.90378992 C87.6487574,6.90378992 88.002547,7.08101933 88.0184221,7.51760432 C88.0512192,8.49755689 86.7560841,8.7975121 85.9028371,8.81771922 C85.8750991,8.9202379 85.8648064,9.02331275 85.8696911,9.17977888 C85.8838217,9.58614589 86.1153202,9.92799843 86.5936688,9.92799843 C87.0067723,9.92799843 87.4200502,9.57446654 87.6288698,9.22612548 L87.6288698,9.22612548 Z M87.5128589,7.45605603 C87.5053574,7.22432302 87.3956268,7.06841305 87.1705831,7.06841305 C86.628036,7.06841305 86.0511217,8.19760167 85.9515093,8.65309608 C86.8415658,8.65309608 87.5343165,8.08989217 87.5128589,7.45605603 L87.5128589,7.45605603 Z" id="Fill-28" fill="#1B4366"></path>
                    <path d="M82.3223746,7.4237988 C82.4143111,7.41063636 82.5622468,7.39358081 82.6260964,7.39358081 C82.7236153,7.39358081 82.8150284,7.41323177 82.8195642,7.51537968 C82.8213087,7.57618643 82.7182073,8.01258604 82.6964007,8.11417779 L82.4900235,9.08078253 C82.4066352,9.47639713 82.3162688,9.89073576 82.2363696,10.2179428 L82.7663562,10.2179428 L83.0641465,8.68646564 C83.9735672,7.68037359 84.32317,7.35205426 84.537921,7.35205426 C84.6340443,7.35205426 84.7008596,7.4060017 84.7053953,7.52891289 C84.7108034,7.70595691 84.6075275,8.10806004 84.5717647,8.22337039 L84.2675196,9.34032351 C84.1984365,9.59133671 84.1473219,9.81750813 84.1520321,9.97935046 C84.1614525,10.2248021 84.3010145,10.3336239 84.5080896,10.3336239 C84.8953741,10.3336239 85.176417,9.90463974 85.422395,9.48325643 L85.3503461,9.34477278 C85.2505593,9.51458673 85.0213287,9.88443262 84.8398982,9.88443262 C84.7825033,9.88443262 84.7285975,9.843833 84.7266785,9.74168509 C84.7212705,9.61080228 84.7730829,9.41596116 84.8088456,9.28619068 L85.1465856,7.97791878 C85.236952,7.61734221 85.2805651,7.38542381 85.2782972,7.26195646 C85.2697491,7.01761717 85.1354207,6.90341914 84.9299157,6.90341914 C84.5813596,6.90341914 84.1180139,7.17426869 83.1377655,8.37334799 L83.1238093,8.37334799 L83.2471472,7.78808309 C83.3143114,7.46810615 83.3795566,7.13422523 83.4434062,6.90341914 C83.104445,7.03337502 82.618246,7.17853258 82.3178389,7.24008087 L82.3223746,7.4237988" id="Fill-29" fill="#1B4366"></path>
                    <path d="M88.5751,6.34874301 C88.6462766,6.34874301 88.7073349,6.3433668 88.7073349,6.25401055 C88.7073349,6.18263678 88.6474977,6.16910357 88.5892306,6.16910357 L88.4782788,6.16910357 L88.4782788,6.34874301 L88.5751,6.34874301 L88.5751,6.34874301 Z M88.4782788,6.67279845 L88.3943672,6.67279845 L88.3943672,6.09587594 L88.6019656,6.09587594 C88.7305371,6.09587594 88.7942123,6.14611566 88.7942123,6.25920137 C88.7942123,6.36320315 88.7336772,6.40713972 88.6529058,6.41881907 L88.8078195,6.67279845 L88.7150108,6.67279845 L88.5723087,6.42234141 L88.4782788,6.42234141 L88.4782788,6.67279845 L88.4782788,6.67279845 Z M88.5780656,6.80201278 C88.7901998,6.80201278 88.9585465,6.62552492 88.9585465,6.38266872 C88.9585465,6.14611566 88.7901998,5.96740316 88.5780656,5.96740316 C88.3612212,5.96740316 88.1940958,6.14611566 88.1940958,6.38266872 C88.1940958,6.62552492 88.3612212,6.80201278 88.5780656,6.80201278 L88.5780656,6.80201278 Z M88.0998914,6.38266872 C88.0998914,6.09587594 88.317957,5.88472082 88.5780656,5.88472082 C88.8345108,5.88472082 89.0527508,6.09587594 89.0527508,6.38266872 C89.0527508,6.67279845 88.8345108,6.8848805 88.5780656,6.8848805 C88.317957,6.8848805 88.0998914,6.67279845 88.0998914,6.38266872 L88.0998914,6.38266872 Z" id="Fill-30" fill="#1B4366"></path>
                    <path d="M159.237421,16.9268916 L159.057735,16.9268916 L158.7022,16.0863496 L158.674288,16.9268916 L158.454652,16.9268916 L158.502452,15.7255876 L158.7343,15.7255876 L159.121584,16.5957914 C159.133621,16.6254533 159.141646,16.6551151 159.149671,16.6764345 C159.157521,16.6551151 159.161534,16.6254533 159.173571,16.5957914 L159.557018,15.7255876 L159.792703,15.7255876 L159.840677,16.9268916 L159.620867,16.9268916 L159.592955,16.0863496 L159.237421,16.9268916" id="Fill-31" fill="#1B4366"></path>
                    <path d="M158.037711,15.9461975 C157.89937,15.8911377 157.766088,15.846645 157.65723,15.846645 C157.531275,15.846645 157.462018,15.9018901 157.462018,16.0014426 C157.462018,16.1117475 157.568259,16.1301008 157.721429,16.1827505 C158.005612,16.279893 158.131566,16.3375482 158.131566,16.5924545 C158.131566,16.8128789 157.968628,16.9469133 157.711485,16.9469133 C157.526216,16.9469133 157.350717,16.8838819 157.19999,16.7656054 L157.29402,16.6000553 C157.427476,16.6999786 157.531275,16.7498476 157.709043,16.7498476 C157.837614,16.7498476 157.924142,16.6973832 157.924142,16.5950499 C157.924142,16.4374715 157.822786,16.4320952 157.602801,16.3586822 C157.373047,16.282303 157.254419,16.2116708 157.254419,16.0094142 C157.254419,15.7836136 157.400262,15.6573654 157.662289,15.6573654 C157.80063,15.6573654 157.946298,15.6996335 158.097025,15.7676704 L158.037711,15.9461975" id="Fill-32" fill="#1B4366"></path>
                </g>
            </g>
        </g>
    </g>
</svg>