<svg xmlns="http://www.w3.org/2000/svg" xmlns:xlink="http://www.w3.org/1999/xlink" width="140" height="140" viewBox="0 0 140 140">
    <defs>
        <path id="a" d="M.639 14.039c-.004 7.516 6.081 13.616 13.59 13.618 7.507.005 13.595-6.089 13.6-13.603C27.831 6.534 21.748.434 14.242.43 6.735.428.644 6.52.64 14.039z"/>
        <path id="c" d="M0 .065h65.049v106.53H0z"/>
        <path id="e" d="M0 .549h65.049v106.53H0z"/>
        <path id="g" d="M60.429.547L3.2.683C1.454.686.034 2.151 0 3.965v.373l.223 99.027c.003 1.85 1.441 3.347 3.216 3.342l57.23-.138c1.773-.002 3.207-1.505 3.197-3.358L63.65 3.885C63.642 2.042 62.214.549 60.446.547"/>
        <path id="i" d="M0 112.22h137.646V.55H0z"/>
        <path id="k" d="M.432.255h25.039V6H.432z"/>
        <path id="m" d="M.432.308h25.039v5.868H.432z"/>
        <path id="o" d="M.419.358h19.566v5.868H.419z"/>
        <path id="q" d="M.416.406h12.971v5.868H.417z"/>
        <path id="s" d="M.334.245h23.988v5.75H.334z"/>
        <path id="u" d="M.33.239h17.002v5.75H.33z"/>
        <path id="w" d="M.323.235h10.03v5.75H.322z"/>
        <path id="y" d="M.367.232h3.897v3.746H.367z"/>
    </defs>
    <g fill="none" fill-rule="evenodd">
        <path fill="#BA9A3D" d="M126.827 70.484c-.004 7.698-6.092 13.936-13.6 13.93-7.508-.002-13.592-6.246-13.59-13.944.005-7.702 6.096-13.942 13.604-13.938 7.507.005 13.591 6.251 13.586 13.952"/>
        <path fill="#F8CD51" d="M126.829 68.392c-.004 7.697-6.093 13.936-13.6 13.933-7.51-.004-13.594-6.25-13.59-13.948.004-7.7 6.095-13.938 13.603-13.935 7.507.004 13.59 6.25 13.587 13.95"/>
        <g transform="translate(99 54)">
            <mask id="b" fill="#fff">
                <use xlink:href="#a"/>
            </mask>
            <path fill="#EAB642" d="M.426 31.935L32.708-.359l7.802 40.145z" mask="url(#b)"/>
        </g>
        <path fill="#FFF" d="M114.075 77.86c-5.04 0-9.125-4.2-9.125-9.379 0-5.18 4.085-9.38 9.125-9.38 2.417 0 4.615.969 6.247 2.548l-1.974 2.03a6.212 6.212 0 0 0-4.273-1.707c-2.076 0-3.92 1.027-5.074 2.613h5.818v.156l-2.842 2.92h-4.183a6.816 6.816 0 0 0-.02 1.486h7.045v.156l-2.842 2.92h-3.083c1.146 1.673 3.04 2.767 5.181 2.767a6.225 6.225 0 0 0 4.477-1.906l1.976 2.03c-1.652 1.697-3.934 2.746-6.453 2.746"/>
        <g transform="translate(2 19.447)">
            <mask id="d" fill="#fff">
                <use xlink:href="#c"/>
            </mask>
            <path fill="#2A86CA" d="M65.049 103.088c.01 1.86-1.452 3.365-3.256 3.37l-58.29.138c-1.808.005-3.273-1.495-3.277-3.353L0 3.568C-.005 1.713 1.457.205 3.26.202L61.548.065c1.81-.008 3.273 1.495 3.281 3.35l.22 99.673" mask="url(#d)"/>
        </g>
        <g transform="translate(2 14)">
            <mask id="f" fill="#fff">
                <use xlink:href="#e"/>
            </mask>
            <path fill="#2DCCCD" d="M65.049 103.571c.01 1.86-1.452 3.369-3.256 3.371l-58.29.138c-1.808.004-3.273-1.496-3.277-3.353L0 4.054C-.005 2.199 1.457.688 3.26.686L61.548.548c1.81-.007 3.273 1.496 3.281 3.35l.22 99.673" mask="url(#f)"/>
        </g>
        <g transform="translate(2 14)">
            <mask id="h" fill="#fff">
                <use xlink:href="#g"/>
            </mask>
            <path fill="#2CB4CC" d="M63.731 41.156l-62.036 65.02c.5.336 1.095.53 1.734.53h.01l57.23-.136c1.773-.003 3.207-1.506 3.198-3.36l-.136-62.054" mask="url(#h)"/>
        </g>
        <g transform="translate(2 14)">
            <path fill="#D0EFF0" d="M60.023 23.922l-55.46.132-.038-16.138 55.463-.131z"/>
            <path fill="#02A5A5" d="M59.995 10.225l-55.463.133-.007-2.65 55.463-.13z"/>
            <path fill="#2A86CA" d="M13.031 44.524H4.522l.002-8.419h8.51zM28.679 44.527l-8.51-.001v-8.42h8.51zM44.326 44.529l-8.516-.002.004-8.42 8.514.001zM59.972 44.53h-8.513l.002-8.42h8.513zM13.028 60.638l-8.51-.003.004-8.422h8.508zM28.676 60.64l-8.51-.002v-8.423l8.51.002zM44.324 60.64H35.81l.001-8.423 8.516.002zM59.97 60.642h-8.513l.002-8.42h8.513zM13.026 76.75l-8.51-.004.002-8.416h8.51zM28.672 76.75h-8.507l.001-8.42 8.51.001zM44.322 76.753H35.81v-8.422h8.515z"/>
            <path fill="#F8CD51" d="M59.967 92.865h-8.513l.003-24.531h8.513z"/>
            <path fill="#2A86CA" d="M13.026 92.86H4.515l.001-8.423 8.51.002zM28.672 92.864l-8.507-.004v-8.421l8.507.001zM44.32 92.864h-8.515l.004-8.422h8.513z"/>
            <mask id="j" fill="#fff">
                <use xlink:href="#i"/>
            </mask>
            <path fill="#F8CD51" d="M70.557 112.22H95.25v-5.223H70.557z" mask="url(#j)"/>
        </g>
        <g transform="translate(73 121)">
            <mask id="l" fill="#fff">
                <use xlink:href="#k"/>
            </mask>
            <path fill="#CCA943" d="M.432 6h25.039V.255H.432z" mask="url(#l)"/>
        </g>
        <path fill="#F8CD51" d="M73 120h25v-5H73z"/>
        <g transform="translate(73 114)">
            <mask id="n" fill="#fff">
                <use xlink:href="#m"/>
            </mask>
            <path fill="#CCA943" d="M22.34.308H.432v5.868h25.04v-2.28z" mask="url(#n)"/>
        </g>
        <path fill="#F8CD51" d="M73 113h25v-5H73z"/>
        <g transform="translate(73 107)">
            <mask id="p" fill="#fff">
                <use xlink:href="#o"/>
            </mask>
            <path fill="#CCA943" d="M15.025.358H.418v5.868h19.567z" mask="url(#p)"/>
        </g>
        <path fill="#F8CD51" d="M73 106h25v-5H73z"/>
        <g transform="translate(73 100)">
            <mask id="r" fill="#fff">
                <use xlink:href="#q"/>
            </mask>
            <path fill="#CCA943" d="M8.452.406H.416v5.868h12.971z" mask="url(#r)"/>
        </g>
        <path fill="#F8CD51" d="M100 126h25v-5h-25z"/>
        <path fill="#CCA943" d="M100 126h25v-5h-25z"/>
        <path fill="#F8CD51" d="M100 120h25v-5h-25z"/>
        <g transform="translate(100 114)">
            <mask id="t" fill="#fff">
                <use xlink:href="#s"/>
            </mask>
            <path fill="#CCA943" d="M19.246.245H.334v5.751h23.988z" mask="url(#t)"/>
        </g>
        <path fill="#F8CD51" d="M100 113h25v-5h-25z"/>
        <g transform="translate(101 107)">
            <mask id="v" fill="#fff">
                <use xlink:href="#u"/>
            </mask>
            <path fill="#CCA943" d="M12.307.239H.33v5.75h17z" mask="url(#v)"/>
        </g>
        <path fill="#F8CD51" d="M100 105h25v-5h-25z"/>
        <g transform="translate(100 100)">
            <mask id="x" fill="#fff">
                <use xlink:href="#w"/>
            </mask>
            <path fill="#CCA943" d="M5.438.235H.323v5.75h10.03z" mask="url(#x)"/>
        </g>
        <path fill="#F8CD51" d="M100 99h25v-5h-25z"/>
        <g transform="translate(100 95)">
            <mask id="z" fill="#fff">
                <use xlink:href="#y"/>
            </mask>
            <path fill="#CCA943" d="M.367.232v3.746h3.897z" mask="url(#z)"/>
        </g>
        <path fill="#F8CD51" d="M100 92h25v-5h-25z"/>
    </g>
</svg>
