,cosine,dice,euclidean,jaccard,manhattan,ngram,overlap
954,0.12222492408766135,0.01069734584720961,0.5368591763703264,0.04439252336448598,0.7776041666666667,0.0,1.0
874,0.1934450467020349,0.02678797068486227,0.6702483551025489,0.08510638297872342,0.8842447916666667,0.0,1.0
421,0.19579414688320304,0.02744218156713842,0.6173719826639117,0.09604043807919124,0.84609375,0.0,1.0
631,0.08955169964158598,0.005743078506799588,0.669666098016072,0.08482142857142858,0.8838541666666667,0.0,1.0
421,0.1598652514957963,0.01829794579665113,0.6172035097977593,0.06402695871946082,0.8459635416666667,0.0,1.0
632,0.1073656254190038,0.00825480881551281,0.6390229177191694,0.07163053722902922,0.8623697916666667,0.0,1.0
421,0.1598652514957963,0.01829794579665113,0.6172035097977593,0.06402695871946082,0.8459635416666667,0.0,1.0
644,0.7390030184340335,0.38827838827838834,0.8777258018560681,0.5241379310344828,0.981640625,1.0,1.0
421,0.11304180340877043,0.009150552486187844,0.6170351080022202,0.03201347935973041,0.8458333333333333,0.0,1.0
395,0.39020939825380524,0.10882956878850103,0.8283360834247887,0.14393939393939398,0.966015625,0.0,1.0
